G04 Layer_Physical_Order=4*
G04 Layer_Color=11436288*
%FSLAX44Y44*%
%MOMM*%
G71*
G01*
G75*
%ADD12R,1.6000X1.2700*%
%ADD17R,1.4000X1.2000*%
%ADD18R,1.2000X1.4000*%
%ADD20C,0.2000*%
%ADD21C,0.5000*%
%ADD22C,1.5000*%
G04:AMPARAMS|DCode=23|XSize=2.4mm|YSize=1.4mm|CornerRadius=0.7mm|HoleSize=0mm|Usage=FLASHONLY|Rotation=270.000|XOffset=0mm|YOffset=0mm|HoleType=Round|Shape=RoundedRectangle|*
%AMROUNDEDRECTD23*
21,1,2.4000,0.0000,0,0,270.0*
21,1,1.0000,1.4000,0,0,270.0*
1,1,1.4000,0.0000,-0.5000*
1,1,1.4000,0.0000,0.5000*
1,1,1.4000,0.0000,0.5000*
1,1,1.4000,0.0000,-0.5000*
%
%ADD23ROUNDEDRECTD23*%
%ADD24C,1.7780*%
%ADD25R,1.7780X1.7780*%
%ADD26R,1.7780X1.7780*%
%ADD27C,1.0000*%
%ADD28C,5.0000*%
%ADD29O,6.0000X3.0000*%
%ADD30C,0.6000*%
%ADD38R,0.5000X0.9000*%
%ADD39R,0.3000X0.9000*%
%ADD40R,2.8000X3.9800*%
%ADD41R,2.1000X1.3000*%
%ADD42R,0.5500X1.4500*%
%ADD43R,0.5500X1.4500*%
%ADD44R,0.5000X0.6000*%
%ADD45R,1.3500X0.6500*%
%ADD46R,3.2000X1.2000*%
%ADD47R,5.6000X2.2000*%
%ADD48O,1.4000X0.4000*%
%ADD49R,1.4000X0.4000*%
%ADD50R,3.0000X2.1000*%
%ADD51R,1.6000X0.8000*%
%ADD52R,0.3000X1.2000*%
%ADD53R,1.2000X0.3000*%
%ADD54R,2.6000X1.5000*%
%ADD55R,2.0000X2.0000*%
%ADD56R,1.4500X0.5500*%
%ADD57R,1.4500X0.5500*%
%ADD58R,0.6500X1.3500*%
%ADD59C,0.2540*%
%ADD60C,0.3000*%
%ADD61C,0.4000*%
G36*
X812331Y675926D02*
X811631Y675758D01*
X807704Y674132D01*
X804081Y671911D01*
X800849Y669151D01*
X798089Y665919D01*
X795868Y662296D01*
X794242Y658369D01*
X793250Y654237D01*
X792916Y650000D01*
X793250Y645763D01*
X794242Y641631D01*
X795868Y637704D01*
X798089Y634081D01*
X800849Y630849D01*
X804081Y628089D01*
X807704Y625868D01*
X811631Y624242D01*
X815763Y623250D01*
X820000Y622916D01*
X824237Y623250D01*
X828369Y624242D01*
X832296Y625868D01*
X835919Y628089D01*
X839151Y630849D01*
X841911Y634081D01*
X844132Y637704D01*
X845758Y641631D01*
X845926Y642331D01*
X847196Y642181D01*
Y267819D01*
X845926Y267669D01*
X845758Y268369D01*
X844132Y272296D01*
X841911Y275919D01*
X839151Y279151D01*
X835919Y281911D01*
X832296Y284132D01*
X828369Y285758D01*
X824237Y286750D01*
X820000Y287083D01*
X815763Y286750D01*
X811631Y285758D01*
X807704Y284132D01*
X804081Y281911D01*
X800849Y279151D01*
X798089Y275919D01*
X795868Y272296D01*
X794242Y268369D01*
X793250Y264237D01*
X792916Y260000D01*
X793250Y255763D01*
X794242Y251631D01*
X795868Y247704D01*
X798089Y244081D01*
X800849Y240849D01*
X804081Y238089D01*
X807704Y235868D01*
X811631Y234242D01*
X812331Y234074D01*
X812181Y232804D01*
X557819D01*
X557669Y234074D01*
X558369Y234242D01*
X562296Y235868D01*
X565919Y238089D01*
X569151Y240849D01*
X571911Y244081D01*
X574132Y247704D01*
X575758Y251631D01*
X576750Y255763D01*
X577084Y260000D01*
X576750Y264237D01*
X575758Y268369D01*
X574132Y272296D01*
X571911Y275919D01*
X569151Y279151D01*
X565919Y281911D01*
X562296Y284132D01*
X558369Y285758D01*
X554237Y286750D01*
X550000Y287083D01*
X545763Y286750D01*
X541631Y285758D01*
X537704Y284132D01*
X534081Y281911D01*
X530849Y279151D01*
X528089Y275919D01*
X525868Y272296D01*
X524242Y268369D01*
X523250Y264237D01*
X522916Y260000D01*
X523250Y255763D01*
X524242Y251631D01*
X525868Y247704D01*
X528089Y244081D01*
X530849Y240849D01*
X534081Y238089D01*
X537704Y235868D01*
X541631Y234242D01*
X542331Y234074D01*
X542181Y232804D01*
X469757D01*
X469326Y234074D01*
X470769Y235181D01*
X472211Y237061D01*
X473118Y239251D01*
X473428Y241600D01*
Y244600D01*
X464350D01*
Y246600D01*
X462350D01*
Y260414D01*
X462001Y260368D01*
X459811Y259461D01*
X457931Y258019D01*
X457270Y257157D01*
X456000Y257588D01*
Y273900D01*
X442000D01*
Y252000D01*
X438000D01*
Y273900D01*
X410000D01*
Y252000D01*
X406000D01*
Y273900D01*
X392000D01*
Y257588D01*
X390730Y257157D01*
X390069Y258019D01*
X388189Y259461D01*
X385999Y260368D01*
X385650Y260414D01*
Y246600D01*
X383650D01*
Y244600D01*
X374572D01*
Y241600D01*
X374882Y239251D01*
X375789Y237061D01*
X377231Y235181D01*
X378674Y234074D01*
X378243Y232804D01*
X287819D01*
X287669Y234074D01*
X288369Y234242D01*
X292296Y235868D01*
X295919Y238089D01*
X299151Y240849D01*
X301911Y244081D01*
X304132Y247704D01*
X305758Y251631D01*
X306750Y255763D01*
X306926Y258000D01*
X280000D01*
Y260000D01*
X278000D01*
Y286926D01*
X275763Y286750D01*
X271631Y285758D01*
X267704Y284132D01*
X264081Y281911D01*
X260849Y279151D01*
X258089Y275919D01*
X255868Y272296D01*
X254242Y268369D01*
X254074Y267669D01*
X252804Y267819D01*
Y452500D01*
X395000D01*
X395000Y464102D01*
X395898Y465000D01*
X399702D01*
X399750Y463750D01*
X399750D01*
Y446250D01*
X401941D01*
Y445000D01*
X401941Y445000D01*
X402174Y443829D01*
X402837Y442837D01*
X409065Y436609D01*
X408771Y435107D01*
X407645Y434355D01*
X406748Y434176D01*
X405950Y434709D01*
X403999Y435097D01*
X402048Y434709D01*
X400910Y433949D01*
X400124Y434105D01*
X398470Y435210D01*
X396519Y435598D01*
X394568Y435210D01*
X392915Y434105D01*
X391810Y432451D01*
X391421Y430500D01*
X391549Y429856D01*
X387198Y425505D01*
X385858Y425960D01*
X385610Y427843D01*
X384512Y430492D01*
X382838Y432674D01*
X382886Y433035D01*
X383297Y433961D01*
X384951Y434290D01*
X386605Y435395D01*
X387710Y437049D01*
X388098Y439000D01*
X387710Y440951D01*
X386605Y442605D01*
X384951Y443710D01*
X383000Y444098D01*
X381049Y443710D01*
X379395Y442605D01*
X379030Y442059D01*
X319000D01*
X317829Y441826D01*
X316837Y441163D01*
X291733Y416059D01*
X268970D01*
X268605Y416605D01*
X266951Y417710D01*
X265000Y418098D01*
X263049Y417710D01*
X261395Y416605D01*
X260290Y414951D01*
X259902Y413000D01*
X260290Y411049D01*
X261395Y409395D01*
X263049Y408290D01*
X265000Y407902D01*
X266951Y408290D01*
X268605Y409395D01*
X268970Y409941D01*
X293000D01*
X293000Y409941D01*
X294171Y410174D01*
X294730Y410548D01*
X296000Y409978D01*
Y409500D01*
X304000D01*
Y413500D01*
X299485D01*
X298999Y414673D01*
X320267Y435941D01*
X369639D01*
X369892Y434671D01*
X369508Y434512D01*
X367233Y432767D01*
X365488Y430492D01*
X364390Y427843D01*
X364279Y427000D01*
X375000D01*
Y423000D01*
X364279D01*
X364390Y422157D01*
X365488Y419508D01*
X367233Y417233D01*
X367848Y416761D01*
X367440Y415559D01*
X363656D01*
X363656Y415559D01*
X362486Y415326D01*
X361493Y414663D01*
X359862Y413031D01*
X358829Y412826D01*
X357837Y412163D01*
X357174Y411171D01*
X356941Y410000D01*
Y383000D01*
X351000D01*
Y378803D01*
X349730Y378417D01*
X349605Y378605D01*
X347951Y379710D01*
X346000Y380098D01*
X344049Y379710D01*
X342395Y378605D01*
X341290Y376951D01*
X340902Y375000D01*
X341265Y373175D01*
X341105Y372814D01*
X340464Y371999D01*
X340000Y372060D01*
X338173Y371820D01*
X336470Y371115D01*
X335008Y369992D01*
X334205Y368946D01*
X332855Y369219D01*
X332710Y369951D01*
X331605Y371605D01*
X331320Y371795D01*
X331167Y371937D01*
X330874Y373267D01*
X330876Y373280D01*
X330884Y373292D01*
X330959Y373668D01*
X331039Y374045D01*
X331036Y374059D01*
X331039Y374072D01*
Y400323D01*
X331000Y400520D01*
Y400721D01*
X330923Y400906D01*
X330884Y401103D01*
X330772Y401270D01*
X330695Y401456D01*
X330554Y401598D01*
X330442Y401765D01*
X330275Y401876D01*
X330133Y402019D01*
X328865Y402865D01*
X328018Y404133D01*
X327877Y404275D01*
X327765Y404442D01*
X327598Y404553D01*
X327456Y404696D01*
X327270Y404772D01*
X327103Y404884D01*
X326906Y404923D01*
X326721Y405000D01*
X326520D01*
X326323Y405039D01*
X316968D01*
X316429Y405500D01*
X295571D01*
X295032Y405039D01*
X278000D01*
X277220Y404884D01*
X276558Y404442D01*
X276116Y403780D01*
X275961Y403000D01*
Y382000D01*
X260000D01*
Y371500D01*
X277000D01*
Y369500D01*
X279000D01*
Y357000D01*
X292952D01*
X292955Y357000D01*
X292956D01*
X293162Y357000D01*
X293197D01*
X293208Y356965D01*
X293221Y356920D01*
X293230Y356892D01*
X293376Y356411D01*
X293112Y355182D01*
X292290Y353951D01*
X291902Y352000D01*
X292290Y350049D01*
X293395Y348395D01*
X295049Y347290D01*
X297000Y346902D01*
X298951Y347290D01*
X300605Y348395D01*
X301710Y350049D01*
X302098Y352000D01*
X301710Y353951D01*
X300605Y355605D01*
X298951Y356710D01*
X297000Y357098D01*
X295661Y356832D01*
X294475Y357162D01*
X294047Y357499D01*
X294035Y357509D01*
X294013Y357526D01*
X294000Y357536D01*
Y357612D01*
X294000Y357632D01*
X294000Y357871D01*
X294000Y357871D01*
X294000Y357938D01*
Y370961D01*
X322554D01*
X323238Y369691D01*
X322902Y368000D01*
X323290Y366049D01*
X323412Y365867D01*
Y361133D01*
X323290Y360951D01*
X322902Y359000D01*
X323290Y357049D01*
X323412Y356867D01*
Y345000D01*
X323761Y343244D01*
X324756Y341756D01*
X332756Y333756D01*
X334244Y332761D01*
X336000Y332412D01*
X349814D01*
X350199Y331142D01*
X349395Y330605D01*
X348290Y328951D01*
X347902Y327000D01*
X348290Y325049D01*
X349395Y323395D01*
X351049Y322290D01*
X353000Y321902D01*
X354951Y322290D01*
X356605Y323395D01*
X357710Y325049D01*
X358098Y327000D01*
X357710Y328951D01*
X356605Y330605D01*
X355801Y331142D01*
X356186Y332412D01*
X391618D01*
X391702Y332209D01*
X393224Y330225D01*
X395209Y328702D01*
X397520Y327745D01*
X400000Y327418D01*
X402480Y327745D01*
X404791Y328702D01*
X406775Y330225D01*
X408298Y332209D01*
X408382Y332412D01*
X436507D01*
X438701Y330217D01*
X439000Y329000D01*
X439000D01*
X439000Y329000D01*
Y311000D01*
X445412D01*
Y309500D01*
X444500D01*
Y299500D01*
X445412D01*
Y294600D01*
X435500D01*
Y281600D01*
X454500D01*
Y287657D01*
X454588Y288100D01*
Y311000D01*
X455000D01*
Y329000D01*
X451470D01*
X451239Y330163D01*
X450244Y331651D01*
X441651Y340244D01*
X440163Y341239D01*
X438407Y341588D01*
X408382D01*
X408298Y341791D01*
X406775Y343775D01*
X404791Y345298D01*
X402480Y346255D01*
X400000Y346582D01*
X397520Y346255D01*
X395209Y345298D01*
X393224Y343775D01*
X392770Y343183D01*
X391500Y343614D01*
Y348000D01*
X373500D01*
Y342858D01*
X373500Y342000D01*
X372401Y341588D01*
D01*
X370099D01*
X369000Y342000D01*
Y358000D01*
X357868D01*
X357189Y359270D01*
X357710Y360049D01*
X358098Y362000D01*
X357710Y363951D01*
X356605Y365605D01*
X356417Y365730D01*
X356803Y367000D01*
X369000D01*
Y383000D01*
X363059D01*
Y388182D01*
X364110Y388710D01*
X364110Y388710D01*
Y388710D01*
X364110Y388710D01*
X384319D01*
X384902Y388000D01*
X385290Y386049D01*
X386395Y384395D01*
X386583Y384270D01*
X386197Y383000D01*
X373500D01*
Y367000D01*
X391500D01*
Y369582D01*
X391582Y369657D01*
X392770Y370145D01*
X394049Y369290D01*
X396000Y368902D01*
X397951Y369290D01*
X399605Y370395D01*
X400710Y372049D01*
X401098Y374000D01*
X400710Y375951D01*
X399605Y377605D01*
X398669Y378230D01*
X399054Y379500D01*
X411500D01*
Y395500D01*
X393500D01*
Y393022D01*
X392380Y392423D01*
X391951Y392710D01*
X390000Y393098D01*
X388049Y392710D01*
X387160Y392116D01*
X385890Y392795D01*
Y406027D01*
X387160Y407069D01*
X388000Y406902D01*
X389951Y407290D01*
X391605Y408395D01*
X391970Y408941D01*
X393500D01*
Y404500D01*
X411500D01*
Y408941D01*
X416000D01*
Y404500D01*
X431941D01*
Y402970D01*
X431395Y402605D01*
X430290Y400951D01*
X429902Y399000D01*
X430290Y397049D01*
X430577Y396620D01*
X429978Y395500D01*
X427000D01*
Y387500D01*
Y379500D01*
X434000D01*
Y393100D01*
X434982Y393906D01*
X435000Y393902D01*
X436951Y394290D01*
X438605Y395395D01*
X439710Y397049D01*
X440098Y399000D01*
X439710Y400951D01*
X438605Y402605D01*
X438059Y402970D01*
Y419000D01*
X438059Y419000D01*
X437826Y420171D01*
X437658Y420421D01*
X438337Y421691D01*
X443983D01*
X450441Y415233D01*
Y407250D01*
X444250D01*
Y397750D01*
Y395000D01*
X453500D01*
Y391000D01*
X444250D01*
Y388289D01*
X438475D01*
X438399Y388274D01*
X438323Y388283D01*
X438012Y388197D01*
X437695Y388134D01*
X437631Y388091D01*
X437556Y388070D01*
X437302Y387871D01*
X437033Y387692D01*
X436990Y387628D01*
X436929Y387580D01*
X435954Y386446D01*
X435795Y386165D01*
X435616Y385897D01*
X435601Y385821D01*
X435563Y385754D01*
X435524Y385433D01*
X435461Y385117D01*
X435461Y374282D01*
X435244Y374239D01*
X433756Y373244D01*
X425683Y365171D01*
X425480Y365256D01*
X423000Y365582D01*
X420520Y365256D01*
X418209Y364298D01*
X416225Y362775D01*
X414702Y360791D01*
X413745Y358480D01*
X413418Y356000D01*
X413745Y353520D01*
X414702Y351209D01*
X416225Y349225D01*
X418209Y347702D01*
X420520Y346744D01*
X423000Y346418D01*
X425480Y346744D01*
X427791Y347702D01*
X429775Y349225D01*
X431298Y351209D01*
X432255Y353520D01*
X432582Y356000D01*
X432255Y358480D01*
X432171Y358683D01*
X438900Y365412D01*
X440000D01*
X440246Y365461D01*
X449941D01*
Y360250D01*
X444250D01*
Y349750D01*
X461750D01*
Y360250D01*
X456059D01*
Y364563D01*
X456957Y365461D01*
X461217D01*
X461602Y365461D01*
X461602D01*
X461602Y365461D01*
X462378Y365615D01*
X462382Y365616D01*
X462382Y365616D01*
X462382D01*
X462382Y365616D01*
X463558Y366058D01*
X464220Y365616D01*
X465000Y365461D01*
X473941D01*
Y360250D01*
X468250D01*
Y349750D01*
X485750D01*
Y357946D01*
X487020Y358658D01*
X488173Y358180D01*
X490000Y357940D01*
X491827Y358180D01*
X493530Y358885D01*
X494992Y360008D01*
X496115Y361470D01*
X496820Y363173D01*
X497060Y365000D01*
X497464Y365461D01*
X504712D01*
X505048Y364674D01*
X505069Y364191D01*
X503224Y362775D01*
X501702Y360791D01*
X500745Y358480D01*
X500418Y356000D01*
X500745Y353520D01*
X501702Y351209D01*
X503224Y349225D01*
X505209Y347702D01*
X506251Y347270D01*
X505999Y346000D01*
X482500D01*
Y329000D01*
X507500D01*
Y334441D01*
X572500D01*
Y329000D01*
X597500D01*
Y346000D01*
X572500D01*
Y340559D01*
X524559D01*
Y389291D01*
X525829Y389985D01*
X527500Y389652D01*
X529451Y390040D01*
X529880Y390327D01*
X531000Y389728D01*
Y387000D01*
X549000D01*
Y403000D01*
X531000D01*
Y399772D01*
X529880Y399173D01*
X529451Y399460D01*
X527500Y399848D01*
X525829Y399515D01*
X524559Y400209D01*
Y410733D01*
X529730Y415904D01*
X531000Y415378D01*
Y412000D01*
X549000D01*
Y416941D01*
X553500D01*
Y412000D01*
X571500D01*
Y425473D01*
X571921Y425726D01*
X573191Y425006D01*
Y386267D01*
X571644Y384720D01*
X571000Y384848D01*
X569049Y384460D01*
X567395Y383355D01*
X566290Y381701D01*
X565902Y379750D01*
X566290Y377799D01*
X567395Y376145D01*
X569049Y375040D01*
X571000Y374652D01*
X572951Y375040D01*
X574441Y376036D01*
X574972Y376160D01*
X575528D01*
X576059Y376036D01*
X577549Y375040D01*
X579500Y374652D01*
X581451Y375040D01*
X582941Y376036D01*
X583472Y376161D01*
X584028D01*
X584559Y376036D01*
X586049Y375040D01*
X588000Y374652D01*
X589951Y375040D01*
X591605Y376145D01*
X592710Y377799D01*
X593098Y379750D01*
X592710Y381701D01*
X591605Y383355D01*
X589951Y384460D01*
X588000Y384848D01*
X587356Y384720D01*
X585809Y386267D01*
Y424793D01*
X587079Y425835D01*
X588000Y425652D01*
X589730Y425996D01*
X591000Y425330D01*
Y412000D01*
X591411D01*
Y408132D01*
X591289Y407950D01*
X590901Y405999D01*
X591245Y404270D01*
X591000Y403000D01*
X591000D01*
X591000Y403000D01*
Y397000D01*
X609000D01*
Y401991D01*
X609605Y402395D01*
X610710Y404049D01*
X611098Y406000D01*
X610710Y407951D01*
X609605Y409605D01*
X607951Y410710D01*
X607850Y410730D01*
X607975Y412000D01*
X609000D01*
Y414079D01*
X610270Y415097D01*
X611250Y414902D01*
X612230Y415097D01*
X613500Y414079D01*
Y412000D01*
X631500D01*
Y414079D01*
X632770Y415097D01*
X633750Y414902D01*
X634730Y415097D01*
X636000Y414079D01*
Y412000D01*
X654000D01*
Y415941D01*
X663575D01*
X663575Y415941D01*
X664746Y416174D01*
X665738Y416837D01*
X667163Y418262D01*
X667163Y418262D01*
X667826Y419254D01*
X667875Y419500D01*
X671941D01*
Y411078D01*
X671941Y411078D01*
X672174Y409907D01*
X672837Y408915D01*
X706941Y374811D01*
Y368000D01*
X701000D01*
Y352000D01*
X719000D01*
Y368000D01*
X713059D01*
Y376078D01*
X713059Y376078D01*
X712826Y377249D01*
X712163Y378241D01*
X712163Y378241D01*
X705636Y384768D01*
X706122Y385941D01*
X740000D01*
X740000Y385941D01*
X741171Y386174D01*
X742163Y386837D01*
X745356Y390030D01*
X746000Y389902D01*
X747951Y390290D01*
X749605Y391395D01*
X750710Y393049D01*
X751098Y395000D01*
X750710Y396951D01*
X749605Y398605D01*
X747951Y399710D01*
X746000Y400098D01*
X744049Y399710D01*
X742395Y398605D01*
X741290Y396951D01*
X740902Y395000D01*
X741030Y394356D01*
X738733Y392059D01*
X716171D01*
X716011Y392531D01*
X715855Y393329D01*
X717298Y395209D01*
X717820Y396468D01*
X719253Y396609D01*
X719395Y396395D01*
X721049Y395290D01*
X723000Y394902D01*
X724951Y395290D01*
X726605Y396395D01*
X727710Y398049D01*
X727923Y399118D01*
X728098Y400000D01*
X729302Y400040D01*
X729998Y399901D01*
X731949Y400289D01*
X733603Y401394D01*
X734708Y403048D01*
X735097Y404999D01*
X734913Y405920D01*
X735956Y407190D01*
X743262D01*
X743290Y407049D01*
X744395Y405395D01*
X746049Y404290D01*
X748000Y403902D01*
X749951Y404290D01*
X751605Y405395D01*
X752710Y407049D01*
X753098Y409000D01*
X754181Y410065D01*
X755000Y409902D01*
X756951Y410290D01*
X758605Y411395D01*
X759710Y413049D01*
X760098Y415000D01*
X759710Y416951D01*
X758605Y418605D01*
X756951Y419710D01*
X755000Y420098D01*
X753882Y419876D01*
X753577Y420079D01*
X752905Y420976D01*
X753059Y421750D01*
Y433000D01*
X777000D01*
Y457000D01*
X757581D01*
X757095Y458173D01*
X775661Y476739D01*
X775661Y476739D01*
X776324Y477732D01*
X776557Y478902D01*
Y523232D01*
X780434Y527108D01*
X781391Y526269D01*
X780488Y525092D01*
X779390Y522443D01*
X779016Y519600D01*
X779390Y516757D01*
X780488Y514108D01*
X782233Y511833D01*
X784508Y510088D01*
X787157Y508990D01*
X790000Y508616D01*
X792843Y508990D01*
X795492Y510088D01*
X797767Y511833D01*
X799512Y514108D01*
X800610Y516757D01*
X800984Y519600D01*
X800610Y522443D01*
X799512Y525092D01*
X797767Y527367D01*
X797282Y527739D01*
X797691Y528941D01*
X802400D01*
X802400Y528941D01*
X803570Y529174D01*
X804563Y529837D01*
X810124Y535398D01*
X812557Y534390D01*
X815400Y534016D01*
X818243Y534390D01*
X820892Y535488D01*
X823167Y537233D01*
X824912Y539508D01*
X826010Y542157D01*
X826384Y545000D01*
X826010Y547843D01*
X824912Y550492D01*
X823167Y552767D01*
X820892Y554512D01*
X818243Y555610D01*
X815400Y555984D01*
X812557Y555610D01*
X809908Y554512D01*
X807633Y552767D01*
X805888Y550492D01*
X804790Y547843D01*
X804416Y545000D01*
X804790Y542157D01*
X805798Y539724D01*
X801133Y535059D01*
X797019D01*
X796588Y536329D01*
X797767Y537233D01*
X799512Y539508D01*
X800610Y542157D01*
X800721Y543000D01*
X790000D01*
Y547000D01*
X800721D01*
X800610Y547843D01*
X799512Y550492D01*
X797767Y552767D01*
X796588Y553671D01*
X797019Y554941D01*
X803000D01*
X803000Y554941D01*
X804171Y555174D01*
X805163Y555837D01*
X808836Y559510D01*
X826290D01*
Y581290D01*
X804510D01*
Y563836D01*
X801733Y561059D01*
X797691D01*
X797282Y562261D01*
X797767Y562633D01*
X799512Y564908D01*
X800610Y567557D01*
X800984Y570400D01*
X800610Y573243D01*
X799512Y575892D01*
X797767Y578167D01*
X795492Y579912D01*
X792843Y581010D01*
X790000Y581384D01*
X787157Y581010D01*
X784508Y579912D01*
X782233Y578167D01*
X780488Y575892D01*
X779390Y573243D01*
X779016Y570400D01*
X779390Y567557D01*
X780488Y564908D01*
X782233Y562633D01*
X782718Y562261D01*
X782309Y561059D01*
X779249D01*
X779249Y561059D01*
X778078Y560826D01*
X777086Y560163D01*
X777085Y560163D01*
X771231Y554308D01*
X770057Y554794D01*
Y561725D01*
X774161Y565829D01*
X774824Y566822D01*
X775057Y567992D01*
X775057Y567992D01*
Y580029D01*
X775603Y580394D01*
X776708Y582048D01*
X777096Y583999D01*
X776708Y585950D01*
X775603Y587604D01*
X773949Y588709D01*
X771999Y589097D01*
X770048Y588709D01*
X768394Y587604D01*
X767289Y585950D01*
X766900Y583999D01*
X767289Y582048D01*
X768394Y580394D01*
X768940Y580029D01*
Y576460D01*
X767670Y575766D01*
X766000Y576098D01*
X764579Y575815D01*
X763309Y576626D01*
Y586197D01*
X763605Y586395D01*
X764710Y588049D01*
X765098Y590000D01*
X764710Y591951D01*
X763605Y593605D01*
X761951Y594710D01*
X760000Y595098D01*
X758049Y594710D01*
X756395Y593605D01*
X755290Y591951D01*
X754902Y590000D01*
X755290Y588049D01*
X756395Y586395D01*
X757191Y585863D01*
Y583957D01*
X755921Y582915D01*
X755000Y583098D01*
X753049Y582710D01*
X751395Y581605D01*
X750290Y579951D01*
X749902Y578000D01*
X750290Y576049D01*
X751395Y574395D01*
X753049Y573290D01*
X753941Y573113D01*
Y503592D01*
X752512Y502163D01*
X750877Y502324D01*
X750355Y503105D01*
X748701Y504210D01*
X746750Y504598D01*
X744799Y504210D01*
X743145Y503105D01*
X742040Y501451D01*
X741950Y501000D01*
X728009D01*
X727605Y501605D01*
X725951Y502710D01*
X724745Y502950D01*
X723900Y503378D01*
X723569Y504307D01*
Y509441D01*
X726500D01*
X726500Y509441D01*
X727671Y509674D01*
X728158Y510000D01*
X746000D01*
Y526000D01*
X728000D01*
Y517860D01*
X727830Y517826D01*
X726837Y517163D01*
X726837Y517163D01*
X725233Y515559D01*
X723500D01*
Y520500D01*
X716499D01*
Y512845D01*
X716431Y512500D01*
X713501D01*
Y520500D01*
X712500D01*
Y585000D01*
X402500D01*
Y632500D01*
X302078D01*
X301546Y633653D01*
X301911Y634081D01*
X304132Y637704D01*
X305758Y641631D01*
X306750Y645763D01*
X307083Y650000D01*
X306750Y654237D01*
X305758Y658369D01*
X304132Y662296D01*
X301911Y665919D01*
X299151Y669151D01*
X295919Y671911D01*
X292296Y674132D01*
X288369Y675758D01*
X287668Y675926D01*
X287819Y677196D01*
X812181D01*
X812331Y675926D01*
D02*
G37*
G36*
X595000Y492000D02*
X613000D01*
Y493005D01*
X614270Y494047D01*
X615000Y493902D01*
X615730Y494047D01*
X617000Y493005D01*
Y492000D01*
X626726D01*
X627941Y491904D01*
X628174Y490733D01*
X628837Y489741D01*
X634308Y484270D01*
X633782Y483000D01*
X628000D01*
Y475000D01*
X624000D01*
Y483000D01*
X617000D01*
Y475000D01*
X613000D01*
Y483000D01*
X606000D01*
Y475000D01*
X602000D01*
Y483000D01*
X595000D01*
Y475000D01*
X591000D01*
Y483000D01*
X578326D01*
X574059Y487267D01*
Y489000D01*
X574059Y489000D01*
X573826Y490171D01*
X573452Y490730D01*
X573978Y491902D01*
X574086Y492000D01*
X591000D01*
Y506941D01*
X595000D01*
Y492000D01*
D02*
G37*
G36*
X327395Y401395D02*
X329000Y400323D01*
Y374072D01*
X328000Y373098D01*
X327508Y373000D01*
X294000D01*
Y382000D01*
X278000D01*
Y403000D01*
X295032D01*
X296000Y401730D01*
Y401500D01*
Y401250D01*
Y401000D01*
X296000Y400230D01*
Y397000D01*
X316000D01*
Y400230D01*
X316000Y401000D01*
Y401250D01*
Y401500D01*
Y401730D01*
X316968Y403000D01*
X326323D01*
X327395Y401395D01*
D02*
G37*
G36*
X658500Y562000D02*
X662632D01*
X663311Y560730D01*
X662790Y559951D01*
X662402Y558000D01*
X662790Y556049D01*
X663895Y554395D01*
X664083Y554270D01*
X663697Y553000D01*
X658500D01*
Y548059D01*
X656500D01*
Y553000D01*
X638500D01*
Y548059D01*
X636500D01*
Y553000D01*
X618500D01*
Y537000D01*
X636500D01*
Y541941D01*
X638500D01*
Y537000D01*
X656500D01*
Y541941D01*
X658500D01*
Y537000D01*
X664441D01*
Y534767D01*
X662837Y533163D01*
X661242Y533061D01*
X661000Y533254D01*
Y534000D01*
X655000D01*
Y525000D01*
Y516000D01*
X661000D01*
X661500Y514937D01*
Y504500D01*
X683500D01*
Y504500D01*
X687841D01*
X688327Y503327D01*
X660559Y475559D01*
X658000D01*
Y476000D01*
Y479000D01*
Y484000D01*
Y489000D01*
Y494000D01*
Y501000D01*
X649059D01*
Y512000D01*
X649059Y512000D01*
X648826Y513171D01*
X648163Y514163D01*
X647499Y514827D01*
X647985Y516000D01*
X651000D01*
Y523000D01*
X645000D01*
Y518985D01*
X643827Y518499D01*
X638163Y524163D01*
X637171Y524826D01*
X636000Y525059D01*
X636000Y525059D01*
Y534000D01*
X620000D01*
Y528059D01*
X600500D01*
Y534000D01*
X584500D01*
Y516309D01*
X575500D01*
Y534000D01*
X570559D01*
Y537000D01*
X576500D01*
Y541941D01*
X578500D01*
Y537000D01*
X596500D01*
Y551941D01*
X598500D01*
Y537000D01*
X616500D01*
Y553000D01*
X611216D01*
X610755Y554196D01*
X611469Y555191D01*
X645250D01*
X645250Y555191D01*
X646421Y555424D01*
X647413Y556087D01*
X649663Y558337D01*
X650326Y559329D01*
X650559Y560500D01*
X650559Y560500D01*
Y562000D01*
X656500D01*
Y575000D01*
X658500D01*
Y562000D01*
D02*
G37*
G36*
X444250Y385500D02*
X453500D01*
Y383500D01*
X455500D01*
Y378750D01*
X462500D01*
X462500Y368398D01*
X461602Y367500D01*
X437500D01*
X437500Y385117D01*
X438475Y386250D01*
X444250D01*
Y385500D01*
D02*
G37*
G36*
X459000Y483000D02*
X448750D01*
Y489250D01*
X446000D01*
Y480000D01*
X442000D01*
Y489250D01*
X439510D01*
X438605Y490605D01*
X436951Y491710D01*
X435631Y491972D01*
X435638Y492439D01*
X436572Y493250D01*
X439500D01*
Y500250D01*
X433500D01*
Y493250D01*
X433500D01*
X434362Y492439D01*
X434369Y491972D01*
X433049Y491710D01*
X432270Y491189D01*
X431000Y491868D01*
Y515000D01*
X459000D01*
Y483000D01*
D02*
G37*
G36*
X558500Y562155D02*
X557913Y561568D01*
X557527Y561283D01*
X556483Y561076D01*
X555491Y560413D01*
X555491Y560413D01*
X550587Y555509D01*
X549924Y554517D01*
X549786Y553823D01*
X548460Y553522D01*
X547884Y554384D01*
X546561Y555268D01*
X545000Y555578D01*
X535813D01*
X535803Y555582D01*
X534862Y556783D01*
X534860Y556803D01*
X535098Y558000D01*
X534754Y559730D01*
X535420Y561000D01*
X538000D01*
Y575000D01*
X558500D01*
Y562155D01*
D02*
G37*
G36*
X702500Y520500D02*
X684622D01*
X684095Y521770D01*
X687355Y525029D01*
X687999Y524901D01*
X689949Y525289D01*
X691603Y526394D01*
X692709Y528048D01*
X693097Y529999D01*
X692709Y531950D01*
X691603Y533604D01*
X689949Y534709D01*
X687999Y535097D01*
X686048Y534709D01*
X684905Y533945D01*
X683605Y533605D01*
X681951Y534710D01*
X680000Y535098D01*
X678049Y534710D01*
X676905Y533945D01*
X676000Y533708D01*
X675095Y533945D01*
X673951Y534710D01*
X672000Y535098D01*
X671631Y535024D01*
X670661Y535830D01*
X670685Y537000D01*
X676500D01*
Y541941D01*
X678500D01*
Y537000D01*
X696500D01*
Y553000D01*
X678500D01*
Y548059D01*
X676500D01*
Y553000D01*
X671303D01*
X670917Y554270D01*
X671105Y554395D01*
X672210Y556049D01*
X672598Y558000D01*
X672210Y559951D01*
X671689Y560730D01*
X672368Y562000D01*
X676500D01*
Y575000D01*
X678500D01*
Y572000D01*
X696500D01*
Y575000D01*
X702500D01*
Y520500D01*
D02*
G37*
G36*
X456000Y480941D02*
X456000Y480941D01*
X459750D01*
Y470250D01*
X460000D01*
Y464000D01*
X459750Y463750D01*
X459750D01*
Y457000D01*
X465000D01*
Y453000D01*
X459750D01*
Y446270D01*
X459725Y445624D01*
X459102Y445000D01*
X442000Y445000D01*
Y449250D01*
X448750D01*
Y456500D01*
X444000D01*
Y460500D01*
X448750D01*
Y467750D01*
X442000D01*
Y470750D01*
X448750D01*
Y480961D01*
X455901D01*
X456000Y480941D01*
D02*
G37*
G36*
X713414Y503230D02*
X712756Y502790D01*
X691079Y481113D01*
X690084Y479625D01*
X689735Y477869D01*
Y450224D01*
X685850Y446338D01*
X668750D01*
X666994Y445989D01*
X665506Y444994D01*
X661756Y441244D01*
X660761Y439756D01*
X660412Y438000D01*
X660761Y436244D01*
X661432Y435241D01*
Y430914D01*
X660162Y430235D01*
X659451Y430710D01*
X657500Y431098D01*
X656553Y430910D01*
X656242Y432472D01*
X655137Y434126D01*
X653483Y435231D01*
X651532Y435619D01*
X649581Y435231D01*
X647927Y434126D01*
X646822Y432472D01*
X646434Y430521D01*
X646683Y429270D01*
X645792Y428000D01*
X637453D01*
X637223Y428186D01*
X636553Y429270D01*
X636848Y430750D01*
X636460Y432701D01*
X635354Y434355D01*
X633701Y435460D01*
X631750Y435848D01*
X630152Y435530D01*
X629491Y436665D01*
X632267Y439441D01*
X642000D01*
Y439000D01*
X658000D01*
Y444000D01*
Y449000D01*
Y454000D01*
Y459000D01*
Y463730D01*
X658392Y464494D01*
X658898Y465000D01*
X663508D01*
X664000Y464902D01*
X665951Y465290D01*
X667605Y466395D01*
X668710Y468049D01*
X669098Y470000D01*
X669082Y470082D01*
X703500Y504500D01*
X713028D01*
X713414Y503230D01*
D02*
G37*
G36*
X513000Y367500D02*
X496541D01*
X496115Y368530D01*
X494992Y369992D01*
X493530Y371115D01*
X491827Y371820D01*
X490000Y372060D01*
X488173Y371820D01*
X486470Y371115D01*
X485008Y369992D01*
X483885Y368530D01*
X483459Y367500D01*
X465000D01*
Y377791D01*
X465750Y378750D01*
X466270Y378750D01*
X473000D01*
Y383500D01*
Y388250D01*
X466270D01*
X465750Y388250D01*
X465000Y389209D01*
X465000Y389210D01*
Y396791D01*
X465750Y397750D01*
X484250D01*
Y405000D01*
X490664D01*
X491234Y404255D01*
X491000Y403000D01*
X491000D01*
Y397000D01*
X509000D01*
Y403000D01*
X509000D01*
X508766Y404255D01*
X509336Y405000D01*
X513000D01*
Y367500D01*
D02*
G37*
G36*
X587729Y465000D02*
X587854Y463730D01*
X587079Y463576D01*
X586682Y463310D01*
X586087Y462913D01*
X586087Y462913D01*
X560337Y437163D01*
X559674Y436171D01*
X559441Y435000D01*
X559441Y435000D01*
Y428000D01*
X553500D01*
Y423059D01*
X549000D01*
Y428000D01*
X536587D01*
X535803Y429270D01*
X536098Y430750D01*
X535710Y432701D01*
X534605Y434355D01*
X532951Y435460D01*
X531000Y435848D01*
X529049Y435460D01*
X527395Y434355D01*
X526290Y432701D01*
X525902Y430750D01*
X526290Y428799D01*
X527395Y427145D01*
X529049Y426040D01*
X531000Y425652D01*
X531000Y425652D01*
Y423059D01*
X529500D01*
X529500Y423059D01*
X528329Y422826D01*
X527337Y422163D01*
X527337Y422163D01*
X519337Y414163D01*
X518674Y413171D01*
X518441Y412000D01*
X518441Y412000D01*
Y362691D01*
X517171Y362260D01*
X516775Y362775D01*
X514791Y364298D01*
X514588Y364382D01*
Y366277D01*
X514884Y366720D01*
X515039Y367500D01*
Y405000D01*
X514884Y405780D01*
X514442Y406442D01*
X513780Y406884D01*
X513000Y407039D01*
X510886D01*
X510098Y408000D01*
X509710Y409951D01*
X509148Y410791D01*
X509000Y412000D01*
X509000Y412000D01*
X509000Y412000D01*
Y418000D01*
X491000D01*
Y414975D01*
X489730Y414850D01*
X489710Y414951D01*
X488605Y416605D01*
X486951Y417710D01*
X485000Y418098D01*
X483049Y417710D01*
X481395Y416605D01*
X480290Y414951D01*
X479902Y413000D01*
X480290Y411049D01*
X481395Y409395D01*
X482705Y408520D01*
X482320Y407250D01*
X465750D01*
Y401017D01*
X465502Y399774D01*
X465240Y399688D01*
X464970Y399634D01*
X464865Y399564D01*
X464746Y399525D01*
X464537Y399345D01*
X464308Y399192D01*
X464238Y399088D01*
X464143Y399006D01*
X464020Y398848D01*
X462750Y399285D01*
Y407250D01*
X456559D01*
Y416500D01*
X456326Y417671D01*
X455663Y418663D01*
X447413Y426913D01*
X446421Y427576D01*
X445250Y427809D01*
X445250Y427809D01*
X439957D01*
X438915Y429079D01*
X439098Y430000D01*
X438710Y431951D01*
X437605Y433605D01*
X435951Y434710D01*
X434000Y435098D01*
X432049Y434710D01*
X430395Y433605D01*
X430231Y433358D01*
X428951Y433278D01*
X428059Y434151D01*
X428059Y435499D01*
X428058Y435503D01*
Y448352D01*
X428956Y449250D01*
X432500D01*
Y458500D01*
X436500D01*
Y449250D01*
X439250D01*
X439961Y448274D01*
Y445000D01*
X440116Y444220D01*
X440558Y443558D01*
X441220Y443116D01*
X442000Y442961D01*
X459102Y442961D01*
X459882Y443116D01*
X460544Y443558D01*
X461167Y444182D01*
X461367Y444481D01*
X461578Y444772D01*
X461588Y444810D01*
X461609Y444843D01*
X461680Y445196D01*
X461763Y445546D01*
X461788Y446193D01*
X463008Y446250D01*
X470250D01*
Y463750D01*
X470250Y463750D01*
X470250D01*
X470318Y464992D01*
X470326Y465000D01*
X587729Y465000D01*
D02*
G37*
G36*
X392500Y575000D02*
X463500D01*
Y567000D01*
X470500D01*
Y575000D01*
X474500D01*
Y567000D01*
X481500D01*
Y575000D01*
X497000D01*
Y572000D01*
X513000D01*
Y575000D01*
X522000D01*
Y561000D01*
X524580D01*
X525246Y559730D01*
X524902Y558000D01*
X525290Y556049D01*
X526395Y554395D01*
X526941Y554030D01*
Y554000D01*
X526941Y554000D01*
X527174Y552829D01*
X527837Y551837D01*
X530337Y549337D01*
X531258Y548722D01*
X531353Y548593D01*
X531726Y547300D01*
X531232Y546561D01*
X530922Y545000D01*
X531232Y543439D01*
X532116Y542116D01*
Y541384D01*
X531232Y540061D01*
X530922Y538500D01*
X531232Y536939D01*
X532116Y535616D01*
Y534884D01*
X531232Y533561D01*
X530922Y532000D01*
X531232Y530439D01*
X532116Y529116D01*
X533439Y528232D01*
X535000Y527922D01*
X545000D01*
X546561Y528232D01*
X547622Y528941D01*
X548733D01*
X554837Y522837D01*
X554837Y522837D01*
X555830Y522174D01*
X557000Y521941D01*
X557000Y521941D01*
X559500D01*
Y516000D01*
X561878D01*
X562404Y514730D01*
X557837Y510163D01*
X557174Y509170D01*
X556941Y508000D01*
X556941Y508000D01*
X551000D01*
Y492000D01*
X563674D01*
X567941Y487733D01*
Y486000D01*
X567941Y486000D01*
X568174Y484829D01*
X568548Y484270D01*
X568022Y483098D01*
X567914Y483000D01*
X551000D01*
Y481059D01*
X479000D01*
X479000Y481059D01*
X477830Y480826D01*
X476837Y480163D01*
X476837Y480163D01*
X471674Y475000D01*
X470250D01*
Y487750D01*
X461039D01*
Y515000D01*
X460884Y515780D01*
X460442Y516442D01*
X459780Y516884D01*
X459000Y517039D01*
X459000D01*
Y521941D01*
X463500D01*
Y517000D01*
X481500D01*
Y522041D01*
X482170Y522174D01*
X483163Y522837D01*
X486163Y525837D01*
X486826Y526829D01*
X487059Y528000D01*
X494000D01*
Y532000D01*
X496000D01*
Y534000D01*
X505000D01*
Y536000D01*
X505000Y536000D01*
X504834Y537270D01*
X505078Y538500D01*
X504768Y540061D01*
X503884Y541384D01*
Y542116D01*
X504768Y543439D01*
X505078Y545000D01*
X504768Y546561D01*
X503884Y547884D01*
Y548616D01*
X504474Y549500D01*
X486979D01*
X486346Y548980D01*
X483163Y552163D01*
X482170Y552826D01*
X481500Y552959D01*
Y558000D01*
X463500D01*
Y553059D01*
X459000D01*
Y558000D01*
X441000D01*
Y553059D01*
X433000D01*
Y559000D01*
X417000D01*
Y541000D01*
X433000D01*
Y546941D01*
X441000D01*
Y542000D01*
X459000D01*
Y546941D01*
X463500D01*
Y542000D01*
X481500D01*
Y543515D01*
X482673Y544001D01*
X483837Y542837D01*
X484485Y542404D01*
X484600Y541233D01*
X484533Y540961D01*
X484087Y540663D01*
X481837Y538413D01*
X481174Y537421D01*
X480941Y536250D01*
X480941Y536250D01*
Y533000D01*
X463500D01*
Y528059D01*
X459000D01*
Y533000D01*
X441000D01*
Y528059D01*
X433000D01*
Y534000D01*
X417000D01*
Y516000D01*
X427865D01*
X428961Y515000D01*
Y491868D01*
X429019Y491575D01*
X429049Y491276D01*
X429096Y491187D01*
X429116Y491088D01*
X429282Y490839D01*
X429424Y490574D01*
X429490Y490520D01*
X429494Y490478D01*
X429398Y490069D01*
X429032Y489250D01*
X420250D01*
Y475000D01*
X410250D01*
Y487750D01*
X410250Y487750D01*
X410250D01*
X409903Y489020D01*
X410098Y490000D01*
X409710Y491951D01*
X409590Y492130D01*
X410189Y493250D01*
X414500D01*
Y500250D01*
X408500D01*
Y495022D01*
X407380Y494423D01*
X406951Y494710D01*
X405000Y495098D01*
X403049Y494710D01*
X402867Y494588D01*
X397133D01*
X396951Y494710D01*
X395000Y495098D01*
X393049Y494710D01*
X391395Y493605D01*
X390290Y491951D01*
X390247Y491736D01*
X387160Y488649D01*
X385890Y489175D01*
Y510090D01*
X364110D01*
Y504588D01*
X358000D01*
Y508000D01*
X322000D01*
Y492000D01*
X325092D01*
Y489313D01*
X324970Y489131D01*
X324582Y487180D01*
X324970Y485229D01*
X326075Y483575D01*
X327729Y482470D01*
X329680Y482082D01*
X331631Y482470D01*
X333285Y483575D01*
X334390Y485229D01*
X334778Y487180D01*
X334390Y489131D01*
X334268Y489313D01*
Y492000D01*
X358000D01*
Y495412D01*
X364110D01*
Y488310D01*
X367034D01*
X367660Y487040D01*
X366702Y485791D01*
X365745Y483480D01*
X365418Y481000D01*
X365745Y478520D01*
X366702Y476209D01*
X368225Y474225D01*
X370209Y472702D01*
X372520Y471744D01*
X375000Y471418D01*
X377480Y471744D01*
X379791Y472702D01*
X381776Y474225D01*
X383298Y476209D01*
X383382Y476412D01*
X386000D01*
X387756Y476761D01*
X389244Y477756D01*
X396736Y485247D01*
X396951Y485290D01*
X397133Y485412D01*
X399750D01*
Y475000D01*
X385000D01*
Y462500D01*
X326000D01*
Y466000D01*
X266000D01*
Y462500D01*
X252804D01*
Y622500D01*
X392500D01*
Y575000D01*
D02*
G37*
%LPC*%
G36*
X380500Y358000D02*
X373500D01*
Y352000D01*
X380500D01*
Y358000D01*
D02*
G37*
G36*
X735380Y353160D02*
X727380D01*
Y346810D01*
X735380D01*
Y353160D01*
D02*
G37*
G36*
X304000Y338000D02*
X286000D01*
Y322000D01*
X294132D01*
X294811Y320730D01*
X294290Y319951D01*
X293902Y318000D01*
X294290Y316049D01*
X295395Y314395D01*
X295583Y314270D01*
X295197Y313000D01*
X286000D01*
Y307000D01*
X304000D01*
Y313000D01*
X302803D01*
X302417Y314270D01*
X302605Y314395D01*
X303710Y316049D01*
X304098Y318000D01*
X303710Y319951D01*
X303189Y320730D01*
X303868Y322000D01*
X304000D01*
Y326941D01*
X307030D01*
X307395Y326395D01*
X309049Y325290D01*
X311000Y324902D01*
X312951Y325290D01*
X314605Y326395D01*
X315710Y328049D01*
X316098Y330000D01*
X315710Y331951D01*
X314605Y333605D01*
X312951Y334710D01*
X311000Y335098D01*
X309049Y334710D01*
X307395Y333605D01*
X307030Y333059D01*
X304000D01*
Y338000D01*
D02*
G37*
G36*
X430000Y318000D02*
X424000D01*
Y311000D01*
X430000D01*
Y318000D01*
D02*
G37*
G36*
X785000Y337098D02*
X783049Y336710D01*
X781395Y335605D01*
X780290Y333951D01*
X779902Y332000D01*
X780246Y330270D01*
X779580Y329000D01*
X777000D01*
Y311000D01*
X793000D01*
Y329000D01*
X790420D01*
X789754Y330270D01*
X790098Y332000D01*
X789710Y333951D01*
X788605Y335605D01*
X786951Y336710D01*
X785000Y337098D01*
D02*
G37*
G36*
X420000Y318000D02*
X414000D01*
Y311000D01*
X420000D01*
Y318000D01*
D02*
G37*
G36*
X346319Y317000D02*
X339000D01*
Y309681D01*
X339480Y309744D01*
X341791Y310702D01*
X343775Y312225D01*
X345298Y314209D01*
X346255Y316520D01*
X346319Y317000D01*
D02*
G37*
G36*
X708000Y320098D02*
X706049Y319710D01*
X704395Y318605D01*
X703290Y316951D01*
X702902Y315000D01*
X703290Y313049D01*
X704395Y311395D01*
X706049Y310290D01*
X708000Y309902D01*
X709951Y310290D01*
X711605Y311395D01*
X712710Y313049D01*
X713098Y315000D01*
X712710Y316951D01*
X711605Y318605D01*
X709951Y319710D01*
X708000Y320098D01*
D02*
G37*
G36*
X545000Y331098D02*
X543049Y330710D01*
X541395Y329605D01*
X540290Y327951D01*
X539902Y326000D01*
X540290Y324049D01*
X541395Y322395D01*
X543049Y321290D01*
X545000Y320902D01*
X546951Y321290D01*
X548605Y322395D01*
X549710Y324049D01*
X550098Y326000D01*
X549710Y327951D01*
X548605Y329605D01*
X546951Y330710D01*
X545000Y331098D01*
D02*
G37*
G36*
X430000Y329000D02*
X424000D01*
Y322000D01*
X430000D01*
Y329000D01*
D02*
G37*
G36*
X270000Y345098D02*
X268049Y344710D01*
X266395Y343605D01*
X265290Y341951D01*
X264902Y340000D01*
X265047Y339270D01*
X264005Y338000D01*
X261000D01*
Y322000D01*
X279000D01*
Y338000D01*
X275995D01*
X274953Y339270D01*
X275098Y340000D01*
X274710Y341951D01*
X273605Y343605D01*
X271951Y344710D01*
X270000Y345098D01*
D02*
G37*
G36*
X420000Y329000D02*
X414000D01*
Y322000D01*
X420000D01*
Y329000D01*
D02*
G37*
G36*
X335000Y328319D02*
X334520Y328256D01*
X332209Y327298D01*
X330225Y325775D01*
X328702Y323791D01*
X327745Y321480D01*
X327681Y321000D01*
X335000D01*
Y328319D01*
D02*
G37*
G36*
X339000D02*
Y321000D01*
X346319D01*
X346255Y321480D01*
X345298Y323791D01*
X343775Y325775D01*
X341791Y327298D01*
X339480Y328256D01*
X339000Y328319D01*
D02*
G37*
G36*
X560500Y393000D02*
X553500D01*
Y387000D01*
X560500D01*
Y393000D01*
D02*
G37*
G36*
X571500D02*
X564500D01*
Y387000D01*
X571500D01*
Y393000D01*
D02*
G37*
G36*
X509000D02*
X502000D01*
Y387000D01*
X509000D01*
Y393000D01*
D02*
G37*
G36*
X477000Y388250D02*
Y385500D01*
X484250D01*
Y388250D01*
X477000D01*
D02*
G37*
G36*
X498000Y393000D02*
X491000D01*
Y387000D01*
X498000D01*
Y393000D01*
D02*
G37*
G36*
X631500Y393000D02*
X624500D01*
Y387000D01*
X631500D01*
Y393000D01*
D02*
G37*
G36*
X643000D02*
X636000D01*
Y387000D01*
X643000D01*
Y393000D01*
D02*
G37*
G36*
X620500D02*
X613500D01*
Y387000D01*
X620500D01*
Y393000D01*
D02*
G37*
G36*
X598000D02*
X591000D01*
Y387000D01*
X598000D01*
Y393000D01*
D02*
G37*
G36*
X609000D02*
X602000D01*
Y387000D01*
X609000D01*
Y393000D01*
D02*
G37*
G36*
X735380Y363510D02*
X727380D01*
Y357160D01*
X735380D01*
Y363510D01*
D02*
G37*
G36*
X640000Y372060D02*
X638173Y371820D01*
X636470Y371115D01*
X635008Y369992D01*
X633885Y368530D01*
X633180Y366827D01*
X632940Y365000D01*
X633180Y363173D01*
X633885Y361470D01*
X635008Y360008D01*
X636470Y358885D01*
X638173Y358180D01*
X640000Y357940D01*
X641827Y358180D01*
X643530Y358885D01*
X644992Y360008D01*
X646115Y361470D01*
X646820Y363173D01*
X647060Y365000D01*
X646820Y366827D01*
X646115Y368530D01*
X644992Y369992D01*
X643530Y371115D01*
X641827Y371820D01*
X640000Y372060D01*
D02*
G37*
G36*
X275000Y367500D02*
X260000D01*
Y357000D01*
X275000D01*
Y367500D01*
D02*
G37*
G36*
X391500Y358000D02*
X384500D01*
Y352000D01*
X391500D01*
Y358000D01*
D02*
G37*
G36*
X777000Y396000D02*
X753000D01*
Y372000D01*
X761941D01*
Y369267D01*
X755537Y362863D01*
X754874Y361870D01*
X754641Y360700D01*
X754641Y360700D01*
Y354248D01*
X753743Y353350D01*
X748650D01*
X747700Y353350D01*
X747380Y354487D01*
Y363510D01*
X739380D01*
Y355160D01*
Y346810D01*
X746430D01*
X747380Y346810D01*
X747700Y345673D01*
X747700Y345673D01*
Y344327D01*
X747380Y343190D01*
X746430Y343190D01*
X727380D01*
Y338059D01*
X719000D01*
Y343000D01*
X701000D01*
Y327000D01*
X719000D01*
Y331941D01*
X727380D01*
Y326490D01*
X747380D01*
Y335513D01*
X747700Y336650D01*
X748650Y336650D01*
X767700D01*
Y341941D01*
X776250D01*
Y339750D01*
X793750D01*
Y350250D01*
X776250D01*
Y348059D01*
X767700D01*
Y353350D01*
X760759D01*
Y359433D01*
X767163Y365837D01*
X767163Y365837D01*
X767560Y366432D01*
X767826Y366829D01*
X768059Y368000D01*
Y372000D01*
X777000D01*
Y396000D01*
D02*
G37*
G36*
X423000Y385500D02*
X416000D01*
Y379500D01*
X423000D01*
Y385500D01*
D02*
G37*
G36*
X838000Y396000D02*
X814000D01*
Y387059D01*
X812830Y386826D01*
X811837Y386163D01*
X809644Y383970D01*
X809000Y384098D01*
X807049Y383710D01*
X805395Y382605D01*
X804290Y380951D01*
X803902Y379000D01*
X804290Y377049D01*
X805395Y375395D01*
X805941Y375030D01*
Y350250D01*
X800250D01*
Y340921D01*
X798980Y339903D01*
X798000Y340098D01*
X796049Y339710D01*
X794395Y338605D01*
X793290Y336951D01*
X792902Y335000D01*
X793290Y333049D01*
X794395Y331395D01*
X796049Y330290D01*
X798000Y329902D01*
X799951Y330290D01*
X801605Y331395D01*
X801970Y331941D01*
X805733D01*
X806941Y330733D01*
Y329000D01*
X802000D01*
Y311000D01*
X818000D01*
Y329000D01*
X813059D01*
Y332000D01*
X813059Y332000D01*
X812826Y333171D01*
X812163Y334163D01*
X812163Y334163D01*
X809163Y337163D01*
X808170Y337826D01*
X807000Y338059D01*
X807000Y338059D01*
X802835D01*
X802413Y338480D01*
X802517Y338997D01*
X803164Y339750D01*
X817750D01*
Y350250D01*
X812059D01*
Y374616D01*
X812730Y375130D01*
X814000Y374575D01*
Y372000D01*
X838000D01*
Y396000D01*
D02*
G37*
G36*
X451500Y381500D02*
X444250D01*
Y378750D01*
X451500D01*
Y381500D01*
D02*
G37*
G36*
X790000Y372060D02*
X788173Y371820D01*
X786470Y371115D01*
X785007Y369992D01*
X783885Y368530D01*
X783180Y366827D01*
X782940Y365000D01*
X783180Y363173D01*
X783885Y361470D01*
X785007Y360008D01*
X786470Y358885D01*
X788173Y358180D01*
X790000Y357940D01*
X791827Y358180D01*
X793530Y358885D01*
X794992Y360008D01*
X796115Y361470D01*
X796820Y363173D01*
X797060Y365000D01*
X796820Y366827D01*
X796115Y368530D01*
X794992Y369992D01*
X793530Y371115D01*
X791827Y371820D01*
X790000Y372060D01*
D02*
G37*
G36*
X484250Y381500D02*
X477000D01*
Y378750D01*
X484250D01*
Y381500D01*
D02*
G37*
G36*
X335000Y317000D02*
X327681D01*
X327745Y316520D01*
X328702Y314209D01*
X330225Y312225D01*
X332209Y310702D01*
X334520Y309744D01*
X335000Y309681D01*
Y317000D01*
D02*
G37*
G36*
X507500Y291500D02*
X497000D01*
Y285000D01*
X507500D01*
Y291500D01*
D02*
G37*
G36*
X583000D02*
X572500D01*
Y285000D01*
X583000D01*
Y291500D01*
D02*
G37*
G36*
X493000D02*
X482500D01*
Y285000D01*
X493000D01*
Y291500D01*
D02*
G37*
G36*
X396000Y286100D02*
X393500D01*
Y281600D01*
X396000D01*
Y286100D01*
D02*
G37*
G36*
X407500Y294600D02*
X400000D01*
Y288100D01*
Y281600D01*
X407500D01*
Y294600D01*
D02*
G37*
G36*
X464350Y297414D02*
X464001Y297368D01*
X461811Y296461D01*
X459931Y295019D01*
X458489Y293139D01*
X457582Y290949D01*
X457272Y288600D01*
Y285600D01*
X464350D01*
Y297414D01*
D02*
G37*
G36*
X468350D02*
Y285600D01*
X475428D01*
Y288600D01*
X475118Y290949D01*
X474212Y293139D01*
X472769Y295019D01*
X470889Y296461D01*
X468699Y297368D01*
X468350Y297414D01*
D02*
G37*
G36*
X383650D02*
Y285600D01*
X390728D01*
Y288600D01*
X390418Y290949D01*
X389511Y293139D01*
X388069Y295019D01*
X386189Y296461D01*
X383999Y297368D01*
X383650Y297414D01*
D02*
G37*
G36*
X597500Y291500D02*
X587000D01*
Y285000D01*
X597500D01*
Y291500D01*
D02*
G37*
G36*
X379650Y297414D02*
X379301Y297368D01*
X377111Y296461D01*
X375231Y295019D01*
X373789Y293139D01*
X372882Y290949D01*
X372572Y288600D01*
Y285600D01*
X379650D01*
Y297414D01*
D02*
G37*
G36*
X475428Y281600D02*
X468350D01*
Y269786D01*
X468699Y269832D01*
X470889Y270739D01*
X472769Y272181D01*
X474212Y274061D01*
X475118Y276250D01*
X475428Y278600D01*
Y281600D01*
D02*
G37*
G36*
X466350Y260414D02*
Y248600D01*
X473428D01*
Y251600D01*
X473118Y253950D01*
X472211Y256139D01*
X470769Y258019D01*
X468889Y259461D01*
X466699Y260368D01*
X466350Y260414D01*
D02*
G37*
G36*
X282000Y286926D02*
Y262000D01*
X306926D01*
X306750Y264237D01*
X305758Y268369D01*
X304132Y272296D01*
X301911Y275919D01*
X299151Y279151D01*
X295919Y281911D01*
X292296Y284132D01*
X288369Y285758D01*
X284237Y286750D01*
X282000Y286926D01*
D02*
G37*
G36*
X381650Y260414D02*
X381301Y260368D01*
X379111Y259461D01*
X377231Y258019D01*
X375789Y256139D01*
X374882Y253950D01*
X374572Y251600D01*
Y248600D01*
X381650D01*
Y260414D01*
D02*
G37*
G36*
X354000Y258182D02*
X351520Y257855D01*
X349209Y256898D01*
X347225Y255375D01*
X345702Y253391D01*
X344745Y251080D01*
X344418Y248600D01*
X344745Y246120D01*
X345702Y243809D01*
X347225Y241824D01*
X349209Y240302D01*
X351520Y239345D01*
X354000Y239018D01*
X356480Y239345D01*
X358791Y240302D01*
X360775Y241824D01*
X362298Y243809D01*
X363256Y246120D01*
X363582Y248600D01*
X363256Y251080D01*
X362298Y253391D01*
X360775Y255375D01*
X358791Y256898D01*
X356480Y257855D01*
X354000Y258182D01*
D02*
G37*
G36*
X494000D02*
X491520Y257855D01*
X489209Y256898D01*
X487225Y255375D01*
X485702Y253391D01*
X484745Y251080D01*
X484418Y248600D01*
X484745Y246120D01*
X485702Y243809D01*
X487225Y241824D01*
X489209Y240302D01*
X491520Y239345D01*
X494000Y239018D01*
X496480Y239345D01*
X498791Y240302D01*
X500775Y241824D01*
X502298Y243809D01*
X503256Y246120D01*
X503582Y248600D01*
X503256Y251080D01*
X502298Y253391D01*
X500775Y255375D01*
X498791Y256898D01*
X496480Y257855D01*
X494000Y258182D01*
D02*
G37*
G36*
X390728Y281600D02*
X383650D01*
Y269786D01*
X383999Y269832D01*
X386189Y270739D01*
X388069Y272181D01*
X389511Y274061D01*
X390418Y276250D01*
X390728Y278600D01*
Y281600D01*
D02*
G37*
G36*
X464350D02*
X457272D01*
Y278600D01*
X457582Y276250D01*
X458489Y274061D01*
X459931Y272181D01*
X461811Y270739D01*
X464001Y269832D01*
X464350Y269786D01*
Y281600D01*
D02*
G37*
G36*
X379650D02*
X372572D01*
Y278600D01*
X372882Y276250D01*
X373789Y274061D01*
X375231Y272181D01*
X377111Y270739D01*
X379301Y269832D01*
X379650Y269786D01*
Y281600D01*
D02*
G37*
G36*
X708000Y283000D02*
X678115D01*
X678246Y281667D01*
X679218Y278463D01*
X680797Y275510D01*
X682921Y272921D01*
X685510Y270797D01*
X688463Y269218D01*
X691667Y268246D01*
X695000Y267918D01*
X708000D01*
Y283000D01*
D02*
G37*
G36*
X741885D02*
X712000D01*
Y267918D01*
X725000D01*
X728333Y268246D01*
X731537Y269218D01*
X734490Y270797D01*
X737079Y272921D01*
X739203Y275510D01*
X740782Y278463D01*
X741754Y281667D01*
X741885Y283000D01*
D02*
G37*
G36*
X439500Y309500D02*
X437000D01*
Y306500D01*
X439500D01*
Y309500D01*
D02*
G37*
G36*
X268000Y313000D02*
X261000D01*
Y307000D01*
X268000D01*
Y313000D01*
D02*
G37*
G36*
X433000Y309500D02*
X430500D01*
Y306500D01*
X433000D01*
Y309500D01*
D02*
G37*
G36*
Y302500D02*
X430500D01*
Y299500D01*
X433000D01*
Y302500D01*
D02*
G37*
G36*
X439500D02*
X437000D01*
Y299500D01*
X439500D01*
Y302500D01*
D02*
G37*
G36*
X615000Y322060D02*
X613173Y321820D01*
X611470Y321115D01*
X610008Y319993D01*
X608885Y318530D01*
X608180Y316827D01*
X607940Y315000D01*
X608180Y313173D01*
X608885Y311470D01*
X610008Y310008D01*
X611470Y308885D01*
X613173Y308180D01*
X615000Y307940D01*
X616827Y308180D01*
X618530Y308885D01*
X619992Y310008D01*
X621115Y311470D01*
X621820Y313173D01*
X622060Y315000D01*
X621820Y316827D01*
X621115Y318530D01*
X619992Y319993D01*
X618530Y321115D01*
X616827Y321820D01*
X615000Y322060D01*
D02*
G37*
G36*
X765000D02*
X763173Y321820D01*
X761470Y321115D01*
X760007Y319993D01*
X758885Y318530D01*
X758180Y316827D01*
X757940Y315000D01*
X758180Y313173D01*
X758885Y311470D01*
X760007Y310008D01*
X761470Y308885D01*
X763173Y308180D01*
X765000Y307940D01*
X766827Y308180D01*
X768530Y308885D01*
X769992Y310008D01*
X771115Y311470D01*
X771820Y313173D01*
X772060Y315000D01*
X771820Y316827D01*
X771115Y318530D01*
X769992Y319993D01*
X768530Y321115D01*
X766827Y321820D01*
X765000Y322060D01*
D02*
G37*
G36*
X465000D02*
X463173Y321820D01*
X461470Y321115D01*
X460008Y319993D01*
X458885Y318530D01*
X458180Y316827D01*
X457940Y315000D01*
X458180Y313173D01*
X458885Y311470D01*
X460008Y310008D01*
X461470Y308885D01*
X463173Y308180D01*
X465000Y307940D01*
X466827Y308180D01*
X468530Y308885D01*
X469992Y310008D01*
X471115Y311470D01*
X471820Y313173D01*
X472060Y315000D01*
X471820Y316827D01*
X471115Y318530D01*
X469992Y319993D01*
X468530Y321115D01*
X466827Y321820D01*
X465000Y322060D01*
D02*
G37*
G36*
X279000Y313000D02*
X272000D01*
Y307000D01*
X279000D01*
Y313000D01*
D02*
G37*
G36*
X315000Y322060D02*
X313173Y321820D01*
X311470Y321115D01*
X310008Y319993D01*
X308885Y318530D01*
X308180Y316827D01*
X307940Y315000D01*
X308180Y313173D01*
X308885Y311470D01*
X310008Y310008D01*
X311470Y308885D01*
X313173Y308180D01*
X315000Y307940D01*
X316827Y308180D01*
X318530Y308885D01*
X319993Y310008D01*
X321115Y311470D01*
X321820Y313173D01*
X322060Y315000D01*
X321820Y316827D01*
X321115Y318530D01*
X319993Y319993D01*
X318530Y321115D01*
X316827Y321820D01*
X315000Y322060D01*
D02*
G37*
G36*
X304000Y303000D02*
X297000D01*
Y297000D01*
X304000D01*
Y303000D01*
D02*
G37*
G36*
X493000Y302000D02*
X482500D01*
Y295500D01*
X493000D01*
Y302000D01*
D02*
G37*
G36*
X507500D02*
X497000D01*
Y295500D01*
X507500D01*
Y302000D01*
D02*
G37*
G36*
X396000Y294600D02*
X393500D01*
Y290100D01*
X396000D01*
Y294600D01*
D02*
G37*
G36*
X708000Y302082D02*
X695000D01*
X691667Y301754D01*
X688463Y300782D01*
X685510Y299203D01*
X682921Y297079D01*
X680797Y294490D01*
X679218Y291537D01*
X678246Y288333D01*
X678115Y287000D01*
X708000D01*
Y302082D01*
D02*
G37*
G36*
X725000D02*
X712000D01*
Y287000D01*
X741885D01*
X741754Y288333D01*
X740782Y291537D01*
X739203Y294490D01*
X737079Y297079D01*
X734490Y299203D01*
X731537Y300782D01*
X728333Y301754D01*
X725000Y302082D01*
D02*
G37*
G36*
X279000Y303000D02*
X272000D01*
Y297000D01*
X279000D01*
Y303000D01*
D02*
G37*
G36*
X293000D02*
X286000D01*
Y297000D01*
X293000D01*
Y303000D01*
D02*
G37*
G36*
X268000D02*
X261000D01*
Y297000D01*
X268000D01*
Y303000D01*
D02*
G37*
G36*
X583000Y302000D02*
X572500D01*
Y295500D01*
X583000D01*
Y302000D01*
D02*
G37*
G36*
X597500D02*
X587000D01*
Y295500D01*
X597500D01*
Y302000D01*
D02*
G37*
G36*
X685500Y568000D02*
X678500D01*
Y562000D01*
X685500D01*
Y568000D01*
D02*
G37*
G36*
X696500D02*
X689500D01*
Y562000D01*
X696500D01*
Y568000D01*
D02*
G37*
G36*
X503000D02*
X497000D01*
Y561000D01*
X503000D01*
Y568000D01*
D02*
G37*
G36*
X513000D02*
X507000D01*
Y561000D01*
X513000D01*
Y568000D01*
D02*
G37*
G36*
X285000Y579098D02*
X283049Y578710D01*
X281395Y577605D01*
X280290Y575951D01*
X279902Y574000D01*
X280290Y572049D01*
X281395Y570395D01*
X283049Y569290D01*
X285000Y568902D01*
X286951Y569290D01*
X288605Y570395D01*
X289710Y572049D01*
X290098Y574000D01*
X289710Y575951D01*
X288605Y577605D01*
X286951Y578710D01*
X285000Y579098D01*
D02*
G37*
G36*
X294000Y605000D02*
X266000D01*
Y594000D01*
X294000D01*
Y605000D01*
D02*
G37*
G36*
X326000D02*
X298000D01*
Y594000D01*
X326000D01*
Y605000D01*
D02*
G37*
G36*
X384319Y591500D02*
X365681D01*
X365745Y591020D01*
X366702Y588709D01*
X368225Y586725D01*
X369134Y586027D01*
X369004Y584526D01*
X367233Y583167D01*
X365488Y580892D01*
X365113Y579988D01*
X358000D01*
Y583000D01*
X322000D01*
Y567000D01*
X322412D01*
Y565133D01*
X322290Y564951D01*
X321902Y563000D01*
X322290Y561049D01*
X323395Y559395D01*
X323583Y559270D01*
X323197Y558000D01*
X322000D01*
Y542000D01*
X358000D01*
Y546941D01*
X364480D01*
X365488Y544508D01*
X367233Y542233D01*
X369508Y540488D01*
X372157Y539390D01*
X375000Y539016D01*
X377843Y539390D01*
X380492Y540488D01*
X382767Y542233D01*
X384512Y544508D01*
X385520Y546941D01*
X392000D01*
Y541000D01*
X408000D01*
Y559000D01*
X392000D01*
Y553059D01*
X385520D01*
X384512Y555492D01*
X382767Y557767D01*
X380492Y559512D01*
X377843Y560610D01*
X375000Y560984D01*
X372157Y560610D01*
X369508Y559512D01*
X367233Y557767D01*
X365488Y555492D01*
X364480Y553059D01*
X358000D01*
Y558000D01*
X330803D01*
X330417Y559270D01*
X330605Y559395D01*
X331710Y561049D01*
X332098Y563000D01*
X331710Y564951D01*
X331588Y565133D01*
Y567000D01*
X358000D01*
Y570812D01*
X365113D01*
X365488Y569908D01*
X367233Y567633D01*
X369508Y565888D01*
X372157Y564790D01*
X375000Y564416D01*
X377843Y564790D01*
X380492Y565888D01*
X382767Y567633D01*
X384512Y569908D01*
X385610Y572557D01*
X385984Y575400D01*
X385610Y578243D01*
X384512Y580892D01*
X382767Y583167D01*
X380996Y584526D01*
X380866Y586027D01*
X381776Y586725D01*
X383298Y588709D01*
X384255Y591020D01*
X384319Y591500D01*
D02*
G37*
G36*
X747000Y595098D02*
X745049Y594710D01*
X743395Y593605D01*
X742290Y591951D01*
X741902Y590000D01*
X741543Y589641D01*
X740500Y589848D01*
X738549Y589460D01*
X736895Y588355D01*
X735790Y586701D01*
X735545Y585466D01*
X734246Y584549D01*
X734000Y584598D01*
X732049Y584210D01*
X730395Y583105D01*
X729290Y581451D01*
X729067Y580331D01*
X727746Y579299D01*
X727500Y579348D01*
X725549Y578960D01*
X723895Y577855D01*
X722790Y576201D01*
X722402Y574250D01*
X722790Y572299D01*
X723895Y570645D01*
X725549Y569540D01*
X727500Y569152D01*
X729451Y569540D01*
X731105Y570645D01*
X732210Y572299D01*
X732433Y573419D01*
X733754Y574451D01*
X734000Y574402D01*
X735951Y574790D01*
X737605Y575895D01*
X738710Y577549D01*
X738955Y578784D01*
X740254Y579701D01*
X740500Y579652D01*
X742451Y580040D01*
X744105Y581145D01*
X745210Y582799D01*
X745598Y584750D01*
X745957Y585109D01*
X747000Y584902D01*
X748951Y585290D01*
X750605Y586395D01*
X751710Y588049D01*
X752098Y590000D01*
X751710Y591951D01*
X750605Y593605D01*
X748951Y594710D01*
X747000Y595098D01*
D02*
G37*
G36*
X501000Y555578D02*
X498000D01*
Y553500D01*
X504474D01*
X503884Y554384D01*
X502561Y555268D01*
X501000Y555578D01*
D02*
G37*
G36*
X505000Y530000D02*
X498000D01*
Y528000D01*
X505000D01*
Y530000D01*
D02*
G37*
G36*
X375000Y535584D02*
X372157Y535210D01*
X369508Y534112D01*
X367233Y532367D01*
X365488Y530092D01*
X364645Y528059D01*
X358000D01*
Y533000D01*
X322000D01*
Y517000D01*
X358000D01*
Y521941D01*
X364366D01*
X364390Y521757D01*
X365488Y519108D01*
X367233Y516833D01*
X369508Y515088D01*
X372157Y513990D01*
X375000Y513616D01*
X377843Y513990D01*
X380492Y515088D01*
X382767Y516833D01*
X384512Y519108D01*
X385610Y521757D01*
X385634Y521941D01*
X392000D01*
Y516000D01*
X408000D01*
Y534000D01*
X392000D01*
Y528059D01*
X385355D01*
X384512Y530092D01*
X382767Y532367D01*
X380492Y534112D01*
X377843Y535210D01*
X375000Y535584D01*
D02*
G37*
G36*
X815400Y530584D02*
X812557Y530210D01*
X809908Y529112D01*
X807633Y527367D01*
X805888Y525092D01*
X804790Y522443D01*
X804416Y519600D01*
X804790Y516757D01*
X805888Y514108D01*
X807633Y511833D01*
X809908Y510088D01*
X812557Y508990D01*
X815400Y508616D01*
X818243Y508990D01*
X820892Y510088D01*
X823167Y511833D01*
X824912Y514108D01*
X826010Y516757D01*
X826384Y519600D01*
X826010Y522443D01*
X824912Y525092D01*
X823167Y527367D01*
X820892Y529112D01*
X818243Y530210D01*
X815400Y530584D01*
D02*
G37*
G36*
X651000Y534000D02*
X645000D01*
Y527000D01*
X651000D01*
Y534000D01*
D02*
G37*
G36*
X735000Y541000D02*
X728000D01*
Y535000D01*
X735000D01*
Y541000D01*
D02*
G37*
G36*
X746000Y551000D02*
X739000D01*
Y545000D01*
X746000D01*
Y551000D01*
D02*
G37*
G36*
X494000Y555578D02*
X491000D01*
X489439Y555268D01*
X488116Y554384D01*
X487526Y553500D01*
X494000D01*
Y555578D01*
D02*
G37*
G36*
X746000Y541000D02*
X739000D01*
Y535000D01*
X746000D01*
Y541000D01*
D02*
G37*
G36*
X735000Y551000D02*
X728000D01*
Y545000D01*
X735000D01*
Y551000D01*
D02*
G37*
G36*
X373000Y602819D02*
X372520Y602755D01*
X370209Y601798D01*
X368225Y600275D01*
X366702Y598291D01*
X365745Y595980D01*
X365681Y595500D01*
X373000D01*
Y602819D01*
D02*
G37*
G36*
X430250Y633348D02*
X428299Y632960D01*
X426645Y631855D01*
X425540Y630201D01*
X425152Y628250D01*
X425540Y626299D01*
X426645Y624645D01*
X428299Y623540D01*
X430250Y623152D01*
X432201Y623540D01*
X433855Y624645D01*
X434960Y626299D01*
X435348Y628250D01*
X434960Y630201D01*
X433855Y631855D01*
X432201Y632960D01*
X430250Y633348D01*
D02*
G37*
G36*
X512000D02*
X510049Y632960D01*
X508395Y631855D01*
X507290Y630201D01*
X506902Y628250D01*
X507290Y626299D01*
X508395Y624645D01*
X510049Y623540D01*
X512000Y623152D01*
X513951Y623540D01*
X515605Y624645D01*
X516710Y626299D01*
X517098Y628250D01*
X516710Y630201D01*
X515605Y631855D01*
X513951Y632960D01*
X512000Y633348D01*
D02*
G37*
G36*
X569000Y632098D02*
X567049Y631710D01*
X565395Y630605D01*
X564290Y628951D01*
X563902Y627000D01*
X564290Y625049D01*
X565395Y623395D01*
X567049Y622290D01*
X569000Y621902D01*
X570951Y622290D01*
X572605Y623395D01*
X573710Y625049D01*
X574098Y627000D01*
X573710Y628951D01*
X572605Y630605D01*
X570951Y631710D01*
X569000Y632098D01*
D02*
G37*
G36*
X411250Y633348D02*
X409299Y632960D01*
X407645Y631855D01*
X406540Y630201D01*
X406152Y628250D01*
X406540Y626299D01*
X407645Y624645D01*
X409299Y623540D01*
X411250Y623152D01*
X413201Y623540D01*
X414855Y624645D01*
X415960Y626299D01*
X416348Y628250D01*
X415960Y630201D01*
X414855Y631855D01*
X413201Y632960D01*
X411250Y633348D01*
D02*
G37*
G36*
X531000D02*
X529049Y632960D01*
X527395Y631855D01*
X526290Y630201D01*
X525902Y628250D01*
X526290Y626299D01*
X527395Y624645D01*
X529049Y623540D01*
X531000Y623152D01*
X532951Y623540D01*
X534605Y624645D01*
X535710Y626299D01*
X536098Y628250D01*
X535710Y630201D01*
X534605Y631855D01*
X532951Y632960D01*
X531000Y633348D01*
D02*
G37*
G36*
X733000Y642082D02*
X720000D01*
X716667Y641754D01*
X713463Y640782D01*
X710509Y639203D01*
X707921Y637079D01*
X705797Y634490D01*
X704218Y631537D01*
X703246Y628333D01*
X703115Y627000D01*
X733000D01*
Y642082D01*
D02*
G37*
G36*
X750000D02*
X737000D01*
Y627000D01*
X766885D01*
X766754Y628333D01*
X765782Y631537D01*
X764203Y634490D01*
X762079Y637079D01*
X759490Y639203D01*
X756537Y640782D01*
X753333Y641754D01*
X750000Y642082D01*
D02*
G37*
G36*
X612750Y633348D02*
X610799Y632960D01*
X609145Y631855D01*
X608040Y630201D01*
X607652Y628250D01*
X608040Y626299D01*
X609145Y624645D01*
X610799Y623540D01*
X612750Y623152D01*
X614701Y623540D01*
X616354Y624645D01*
X617460Y626299D01*
X617848Y628250D01*
X617460Y630201D01*
X616354Y631855D01*
X614701Y632960D01*
X612750Y633348D01*
D02*
G37*
G36*
X631750D02*
X629799Y632960D01*
X628145Y631855D01*
X627040Y630201D01*
X626652Y628250D01*
X627040Y626299D01*
X628145Y624645D01*
X629799Y623540D01*
X631750Y623152D01*
X633701Y623540D01*
X635354Y624645D01*
X636460Y626299D01*
X636848Y628250D01*
X636460Y630201D01*
X635354Y631855D01*
X633701Y632960D01*
X631750Y633348D01*
D02*
G37*
G36*
X468250Y631348D02*
X466299Y630960D01*
X464645Y629855D01*
X463540Y628201D01*
X463152Y626250D01*
X463540Y624299D01*
X464645Y622645D01*
X466299Y621540D01*
X468250Y621152D01*
X470201Y621540D01*
X471855Y622645D01*
X472960Y624299D01*
X473348Y626250D01*
X472960Y628201D01*
X471855Y629855D01*
X470201Y630960D01*
X468250Y631348D01*
D02*
G37*
G36*
X766885Y623000D02*
X737000D01*
Y607918D01*
X750000D01*
X753333Y608246D01*
X756537Y609218D01*
X759490Y610797D01*
X762079Y612921D01*
X764203Y615510D01*
X765782Y618463D01*
X766754Y621667D01*
X766885Y623000D01*
D02*
G37*
G36*
X294000Y620000D02*
X266000D01*
Y609000D01*
X294000D01*
Y620000D01*
D02*
G37*
G36*
X377000Y602819D02*
Y595500D01*
X384319D01*
X384255Y595980D01*
X383298Y598291D01*
X381776Y600275D01*
X379791Y601798D01*
X377480Y602755D01*
X377000Y602819D01*
D02*
G37*
G36*
X733000Y623000D02*
X703115D01*
X703246Y621667D01*
X704218Y618463D01*
X705797Y615510D01*
X707921Y612921D01*
X710509Y610797D01*
X713463Y609218D01*
X716667Y608246D01*
X720000Y607918D01*
X733000D01*
Y623000D01*
D02*
G37*
G36*
X326000Y620000D02*
X298000D01*
Y609000D01*
X326000D01*
Y620000D01*
D02*
G37*
G36*
X588000Y626348D02*
X586049Y625960D01*
X584395Y624855D01*
X583290Y623201D01*
X582902Y621250D01*
X583290Y619299D01*
X584395Y617645D01*
X586049Y616540D01*
X588000Y616152D01*
X589951Y616540D01*
X591605Y617645D01*
X592710Y619299D01*
X593098Y621250D01*
X592710Y623201D01*
X591605Y624855D01*
X589951Y625960D01*
X588000Y626348D01*
D02*
G37*
G36*
X669500Y628848D02*
X667549Y628460D01*
X665895Y627355D01*
X664790Y625701D01*
X664402Y623750D01*
X664790Y621799D01*
X665895Y620145D01*
X667549Y619040D01*
X669500Y618652D01*
X671451Y619040D01*
X673105Y620145D01*
X674210Y621799D01*
X674598Y623750D01*
X674210Y625701D01*
X673105Y627355D01*
X671451Y628460D01*
X669500Y628848D01*
D02*
G37*
G36*
X688750Y623348D02*
X686799Y622960D01*
X685145Y621855D01*
X684040Y620201D01*
X683652Y618250D01*
X684040Y616299D01*
X685145Y614645D01*
X686799Y613540D01*
X688750Y613152D01*
X690701Y613540D01*
X692355Y614645D01*
X693460Y616299D01*
X693848Y618250D01*
X693460Y620201D01*
X692355Y621855D01*
X690701Y622960D01*
X688750Y623348D01*
D02*
G37*
G36*
X487250Y626348D02*
X485299Y625960D01*
X483645Y624855D01*
X482540Y623201D01*
X482152Y621250D01*
X482540Y619299D01*
X483645Y617645D01*
X485299Y616540D01*
X487250Y616152D01*
X489201Y616540D01*
X490855Y617645D01*
X491960Y619299D01*
X492348Y621250D01*
X491960Y623201D01*
X490855Y624855D01*
X489201Y625960D01*
X487250Y626348D01*
D02*
G37*
G36*
X294000Y431000D02*
X279000D01*
Y420500D01*
X294000D01*
Y431000D01*
D02*
G37*
G36*
X487250Y435848D02*
X485299Y435460D01*
X483645Y434355D01*
X482540Y432701D01*
X482152Y430750D01*
X482540Y428799D01*
X483645Y427145D01*
X485299Y426040D01*
X487250Y425652D01*
X489201Y426040D01*
X489730Y426393D01*
X491000Y425715D01*
Y422000D01*
X498000D01*
Y428000D01*
X492837D01*
X492054Y429270D01*
X492348Y430750D01*
X491960Y432701D01*
X490855Y434355D01*
X489201Y435460D01*
X487250Y435848D01*
D02*
G37*
G36*
X316000Y413500D02*
X308000D01*
Y409500D01*
X316000D01*
Y413500D01*
D02*
G37*
G36*
X275000Y431000D02*
X260000D01*
Y420500D01*
X275000D01*
Y431000D01*
D02*
G37*
G36*
X468250Y435848D02*
X466299Y435460D01*
X464645Y434355D01*
X463540Y432701D01*
X463152Y430750D01*
X463540Y428799D01*
X464645Y427145D01*
X466299Y426040D01*
X468250Y425652D01*
X470201Y426040D01*
X471855Y427145D01*
X472960Y428799D01*
X473348Y430750D01*
X472960Y432701D01*
X471855Y434355D01*
X470201Y435460D01*
X468250Y435848D01*
D02*
G37*
G36*
X838000Y457000D02*
X814000D01*
Y433000D01*
X838000D01*
Y457000D01*
D02*
G37*
G36*
X275000Y445500D02*
X260000D01*
Y435000D01*
X275000D01*
Y445500D01*
D02*
G37*
G36*
X512000Y435848D02*
X510049Y435460D01*
X508395Y434355D01*
X507290Y432701D01*
X506902Y430750D01*
X507196Y429270D01*
X506413Y428000D01*
X502000D01*
Y422000D01*
X509000D01*
Y425330D01*
X510270Y425996D01*
X512000Y425652D01*
X513951Y426040D01*
X515605Y427145D01*
X516710Y428799D01*
X517098Y430750D01*
X516710Y432701D01*
X515605Y434355D01*
X513951Y435460D01*
X512000Y435848D01*
D02*
G37*
G36*
X304000Y443098D02*
X302049Y442710D01*
X300395Y441605D01*
X299290Y439951D01*
X298902Y438000D01*
X299290Y436049D01*
X300395Y434395D01*
X302049Y433290D01*
X304000Y432902D01*
X305951Y433290D01*
X307605Y434395D01*
X308710Y436049D01*
X309098Y438000D01*
X308710Y439951D01*
X307605Y441605D01*
X305951Y442710D01*
X304000Y443098D01*
D02*
G37*
G36*
X654000Y403000D02*
X647000D01*
Y397000D01*
X654000D01*
Y403000D01*
D02*
G37*
G36*
X316000Y393000D02*
X308000D01*
Y389000D01*
X316000D01*
Y393000D01*
D02*
G37*
G36*
X423000Y395500D02*
X416000D01*
Y389500D01*
X423000D01*
Y395500D01*
D02*
G37*
G36*
X654000Y393000D02*
X647000D01*
Y387000D01*
X654000D01*
Y393000D01*
D02*
G37*
G36*
X304000D02*
X296000D01*
Y389000D01*
X304000D01*
Y393000D01*
D02*
G37*
G36*
X560500Y403000D02*
X553500D01*
Y397000D01*
X560500D01*
Y403000D01*
D02*
G37*
G36*
X631500Y403000D02*
X624500D01*
Y397000D01*
X631500D01*
Y403000D01*
D02*
G37*
G36*
X643000D02*
X636000D01*
Y397000D01*
X643000D01*
Y403000D01*
D02*
G37*
G36*
X571500Y403000D02*
X564500D01*
Y397000D01*
X571500D01*
Y403000D01*
D02*
G37*
G36*
X620500Y403000D02*
X613500D01*
Y397000D01*
X620500D01*
Y403000D01*
D02*
G37*
G36*
X294000Y445500D02*
X279000D01*
Y435000D01*
X294000D01*
Y445500D01*
D02*
G37*
G36*
X513500Y507000D02*
X500500D01*
Y499500D01*
X513500D01*
Y507000D01*
D02*
G37*
G36*
X470500Y508000D02*
X463500D01*
Y502000D01*
X470500D01*
Y508000D01*
D02*
G37*
G36*
X449500Y500250D02*
X443500D01*
Y493250D01*
X449500D01*
Y500250D01*
D02*
G37*
G36*
X496500Y507000D02*
X483500D01*
Y499500D01*
X496500D01*
Y507000D01*
D02*
G37*
G36*
X481500Y508000D02*
X474500D01*
Y502000D01*
X481500D01*
Y508000D01*
D02*
G37*
G36*
X439500Y511250D02*
X433500D01*
Y504250D01*
X439500D01*
Y511250D01*
D02*
G37*
G36*
X449500D02*
X443500D01*
Y504250D01*
X449500D01*
Y511250D01*
D02*
G37*
G36*
X414500D02*
X408500D01*
Y504250D01*
X414500D01*
Y511250D01*
D02*
G37*
G36*
X424500D02*
X418500D01*
Y504250D01*
X424500D01*
Y511250D01*
D02*
G37*
G36*
Y500250D02*
X418500D01*
Y493250D01*
X424500D01*
Y500250D01*
D02*
G37*
G36*
X326000Y481000D02*
X298000D01*
Y470000D01*
X326000D01*
Y481000D01*
D02*
G37*
G36*
X496500Y495500D02*
X483500D01*
Y488000D01*
X496500D01*
Y495500D01*
D02*
G37*
G36*
X789000Y454098D02*
X787049Y453710D01*
X785395Y452605D01*
X784290Y450951D01*
X783902Y449000D01*
X784290Y447049D01*
X785395Y445395D01*
X787049Y444290D01*
X789000Y443902D01*
X790951Y444290D01*
X792605Y445395D01*
X793710Y447049D01*
X794098Y449000D01*
X793710Y450951D01*
X792605Y452605D01*
X790951Y453710D01*
X789000Y454098D01*
D02*
G37*
G36*
X294000Y481000D02*
X266000D01*
Y470000D01*
X294000D01*
Y481000D01*
D02*
G37*
G36*
X513500Y495500D02*
X500500D01*
Y488000D01*
X513500D01*
Y495500D01*
D02*
G37*
G36*
X470500Y498000D02*
X463500D01*
Y492000D01*
X470500D01*
Y498000D01*
D02*
G37*
G36*
X481500D02*
X474500D01*
Y492000D01*
X481500D01*
Y498000D01*
D02*
G37*
G36*
X534500Y515098D02*
X532549Y514710D01*
X530895Y513605D01*
X529790Y511951D01*
X529402Y510000D01*
X529746Y508270D01*
X529080Y507000D01*
X519500D01*
Y488000D01*
X549500D01*
Y507000D01*
X539920D01*
X539254Y508270D01*
X539598Y510000D01*
X539210Y511951D01*
X538105Y513605D01*
X536451Y514710D01*
X534500Y515098D01*
D02*
G37*
G36*
X286000Y499098D02*
X284049Y498710D01*
X282395Y497605D01*
X281290Y495951D01*
X280902Y494000D01*
X281290Y492049D01*
X282395Y490395D01*
X284049Y489290D01*
X286000Y488902D01*
X287951Y489290D01*
X289605Y490395D01*
X290710Y492049D01*
X291098Y494000D01*
X290710Y495951D01*
X289605Y497605D01*
X287951Y498710D01*
X286000Y499098D01*
D02*
G37*
%LPD*%
D12*
X737380Y334840D02*
D03*
Y355160D02*
D03*
X757700Y345000D02*
D03*
D17*
X500000Y420000D02*
D03*
Y395000D02*
D03*
X600000Y395000D02*
D03*
Y420000D02*
D03*
X622500Y395000D02*
D03*
Y420000D02*
D03*
X645000Y395000D02*
D03*
Y420000D02*
D03*
X737000Y543000D02*
D03*
Y518000D02*
D03*
X450000Y550000D02*
D03*
Y525000D02*
D03*
X604000Y475000D02*
D03*
Y500000D02*
D03*
X587500Y570000D02*
D03*
Y545000D02*
D03*
X626000Y475000D02*
D03*
Y500000D02*
D03*
X562500Y395000D02*
D03*
Y420000D02*
D03*
X472500Y500000D02*
D03*
Y525000D02*
D03*
Y575000D02*
D03*
Y550000D02*
D03*
X540000Y420000D02*
D03*
Y395000D02*
D03*
X360000Y375000D02*
D03*
Y350000D02*
D03*
X607500Y545000D02*
D03*
Y570000D02*
D03*
X270000Y305000D02*
D03*
Y330000D02*
D03*
X647500Y570000D02*
D03*
Y545000D02*
D03*
X295000Y305000D02*
D03*
Y330000D02*
D03*
X627500Y545000D02*
D03*
Y570000D02*
D03*
X402500Y412500D02*
D03*
Y387500D02*
D03*
X567500Y570000D02*
D03*
Y545000D02*
D03*
X687500Y570000D02*
D03*
Y545000D02*
D03*
X382500Y375000D02*
D03*
Y350000D02*
D03*
X710000Y360000D02*
D03*
Y335000D02*
D03*
X667500Y545000D02*
D03*
Y570000D02*
D03*
X425000Y412500D02*
D03*
Y387500D02*
D03*
X560000Y500000D02*
D03*
Y475000D02*
D03*
X582000Y500000D02*
D03*
Y475000D02*
D03*
D18*
X505000Y570000D02*
D03*
X530000D02*
D03*
X422000Y320000D02*
D03*
X447000D02*
D03*
X416500Y502250D02*
D03*
X441500D02*
D03*
X653000Y525000D02*
D03*
X628000D02*
D03*
X567500D02*
D03*
X592500D02*
D03*
X425000D02*
D03*
X400000D02*
D03*
X810000Y320000D02*
D03*
X785000D02*
D03*
X425000Y550000D02*
D03*
X400000D02*
D03*
D20*
X746502Y409000D02*
X747751Y410249D01*
X388000Y412000D02*
X424500D01*
X292000Y395000D02*
X306000D01*
X319000Y439000D02*
X383000D01*
X293000Y413000D02*
X319000Y439000D01*
X265000Y413000D02*
X293000D01*
X719750Y481758D02*
Y491500D01*
X725000Y482412D02*
Y497000D01*
X714250Y483000D02*
Y484000D01*
X711275Y449529D02*
X725992D01*
X710275D02*
X711275D01*
X724675Y446250D02*
X728425Y442500D01*
X717250Y446250D02*
X724675D01*
X724000Y498000D02*
X725000Y497000D01*
X716035Y466022D02*
X717512Y467500D01*
X710000Y427500D02*
Y435977D01*
X715000Y427500D02*
Y435573D01*
X714999Y442999D02*
Y443999D01*
X728425Y442500D02*
X735000D01*
X728021Y447500D02*
X735000D01*
X725992Y449529D02*
X728021Y447500D01*
X714785Y455272D02*
X715785D01*
X724271D01*
X802400Y532000D02*
X815400Y545000D01*
X781000Y532000D02*
X802400D01*
X773499Y524498D02*
X781000Y532000D01*
X773499Y478902D02*
Y524498D01*
X750000Y455404D02*
X773499Y478902D01*
X750000Y421750D02*
Y455404D01*
X746000Y417750D02*
X750000Y421750D01*
X770248Y480248D02*
Y549000D01*
X742500Y452500D02*
X770248Y480248D01*
X735000Y452500D02*
X742500D01*
X754500Y414500D02*
X755000Y415000D01*
X746502Y409000D02*
X748000D01*
X720000Y420000D02*
X722250Y417750D01*
X746000D01*
X720000Y420000D02*
Y427500D01*
X695000Y417500D02*
Y427500D01*
X375000Y550000D02*
X400000D01*
X450000D02*
X472500D01*
X481000D02*
X486000Y545000D01*
X496000D01*
X472500Y525000D02*
X481000D01*
X484000Y528000D01*
Y536250D01*
X486250Y538500D01*
X496000D01*
X540000Y532000D02*
X550000D01*
X557000Y525000D01*
X567500D01*
X567500Y525000D02*
Y545000D01*
Y525000D02*
X567500Y525000D01*
X567500Y545000D02*
X587500D01*
X532500Y551500D02*
X540000D01*
X530000Y554000D02*
X532500Y551500D01*
X540000Y538500D02*
X551500D01*
X556000Y543000D01*
Y552000D01*
X559000Y555000D01*
X606000D01*
X607500Y553500D01*
Y545000D02*
Y553500D01*
X540000Y545000D02*
X550000D01*
X552750Y547750D01*
Y553346D01*
X557654Y558250D01*
X645250D01*
X647500Y560500D01*
Y570000D01*
X667500Y545000D02*
X687500D01*
X607500Y570000D02*
X627500D01*
X667500Y558000D02*
Y570000D01*
X340000Y500000D02*
X340800Y499200D01*
X700000Y427500D02*
X700000Y427500D01*
X647500Y545000D02*
X667500D01*
X627500D02*
X647500D01*
X340000Y550000D02*
X375000D01*
X587500Y570000D02*
X607500D01*
X567500D02*
X587500D01*
X450000Y525000D02*
X472500D01*
X425000D02*
X450000D01*
X472500Y550000D02*
X481000D01*
X425000D02*
X450000D01*
X726499Y457500D02*
X735000D01*
X705000Y419000D02*
X705000Y419000D01*
Y427500D01*
X803000Y558000D02*
X815400Y570400D01*
X779249Y558000D02*
X803000D01*
X770248Y549000D02*
X779249Y558000D01*
X723499Y462500D02*
X735000D01*
X724271Y455272D02*
X726499Y457500D01*
X670000Y418000D02*
Y427500D01*
X666750Y414750D02*
X670000Y418000D01*
X453500Y402500D02*
Y416500D01*
X735000Y482500D02*
X749500D01*
X751250Y484250D01*
X746771Y487500D02*
X760250Y500979D01*
X735000Y487500D02*
X746771D01*
X735000Y497500D02*
X744750D01*
X746750Y499500D01*
X424500Y412000D02*
X425000Y412500D01*
X346000Y375000D02*
X360000D01*
Y337000D02*
Y350000D01*
X710000Y335000D02*
X737220D01*
X737380Y334840D01*
X757700Y345000D02*
X785000D01*
Y320000D02*
Y332000D01*
X809000Y345000D02*
Y379000D01*
X814000Y384000D01*
X826000D01*
X765000Y368000D02*
Y384000D01*
X757700Y360700D02*
X765000Y368000D01*
X757700Y345000D02*
Y360700D01*
X665000Y420425D02*
Y427500D01*
X663575Y419000D02*
X665000Y420425D01*
X646000Y419000D02*
X663575D01*
X645000Y420000D02*
X646000Y419000D01*
X579500Y379750D02*
Y434271D01*
X597729Y452500D01*
X576250Y385000D02*
Y435617D01*
X598133Y457500D01*
X798000Y335000D02*
X807000D01*
X810000Y332000D01*
Y320000D02*
Y332000D01*
X597729Y452500D02*
X650000D01*
X598133Y457500D02*
X650000D01*
X597325Y447500D02*
X650000D01*
X582750Y432924D02*
X597325Y447500D01*
X579500Y379750D02*
X579500Y379750D01*
X582750Y385000D02*
Y432924D01*
Y385000D02*
X588000Y379750D01*
X571000D02*
X576250Y385000D01*
X642000Y472500D02*
X650000D01*
X630250Y460750D02*
X642000Y472500D01*
X588250Y460750D02*
X630250D01*
X562500Y435000D02*
X588250Y460750D01*
X562500Y420000D02*
Y435000D01*
X540000Y420000D02*
X562500D01*
X529500D02*
X540000D01*
X521500Y337500D02*
X585000D01*
X495000D02*
X521500D01*
Y412000D01*
X529500Y420000D01*
X527750Y395000D02*
X540000D01*
X527500Y394750D02*
X527750Y395000D01*
X402000Y388000D02*
X402500Y387500D01*
X390000Y388000D02*
X402000D01*
X631000Y442500D02*
X650000D01*
X622500Y434000D02*
X631000Y442500D01*
X622500Y420000D02*
Y434000D01*
X670000Y427500D02*
Y436000D01*
X671000Y437000D01*
X683000D01*
X685000Y435000D01*
Y427500D02*
Y435000D01*
X650000Y472500D02*
X661500D01*
X664000Y470000D01*
X361156Y410000D02*
X363656Y412500D01*
X360000Y410000D02*
X361156D01*
X360000Y375000D02*
Y410000D01*
X442500Y500000D02*
X444000Y498500D01*
X444000Y475000D02*
X444500Y474500D01*
X454000Y455000D02*
X465000D01*
X424999Y429999D02*
Y458500D01*
Y429999D02*
X425000Y435499D01*
X418000Y426000D02*
Y432000D01*
X405000Y445000D02*
X418000Y432000D01*
X405000Y445000D02*
Y455000D01*
X424999Y429999D02*
X430248Y424750D01*
X418000Y426000D02*
X422500Y421500D01*
X432500D01*
X435000Y419000D01*
Y399000D02*
Y419000D01*
X665000Y512500D02*
Y531000D01*
X667500Y533500D01*
Y545000D01*
X670000Y512500D02*
Y528000D01*
X672000Y530000D01*
X675000Y512500D02*
Y525000D01*
X680000Y530000D01*
X680000Y512500D02*
Y522001D01*
X687999Y529999D01*
X640404Y482500D02*
X650000D01*
X714999Y443999D02*
X717250Y446250D01*
X717512Y467500D02*
X735000D01*
X721749Y460749D02*
X723499Y462500D01*
X735000Y472500D02*
X751521D01*
X766999Y487978D01*
X735000Y492500D02*
X747175D01*
X757000Y502325D01*
X735000Y477500D02*
X751925D01*
X455000Y485000D02*
Y487500D01*
Y485000D02*
X456000Y484000D01*
X464000D01*
X430248Y424750D02*
X445250D01*
X453500Y416500D01*
X434500Y478500D02*
X435000Y479000D01*
X763500Y568500D02*
X766000Y571000D01*
X751925Y477500D02*
X763500Y489075D01*
Y568500D01*
X766999Y487978D02*
Y562992D01*
X771999Y567992D01*
Y583999D01*
X760000Y590000D02*
X760250Y589750D01*
X757000Y502325D02*
Y575000D01*
X760250Y500979D02*
Y589750D01*
X754000Y579000D02*
X755000Y578000D01*
Y577000D02*
X757000Y575000D01*
X755000Y577000D02*
Y578000D01*
X472500Y375000D02*
X477000Y370500D01*
Y355000D02*
Y370500D01*
X363656Y412500D02*
X378519D01*
X396519Y430500D01*
X453000Y355000D02*
Y373000D01*
X455000Y375000D01*
X456000D01*
X405000Y479000D02*
Y490000D01*
X383500Y374000D02*
X396000D01*
X382500Y375000D02*
X383500Y374000D01*
X295000Y330000D02*
X311000D01*
X270000D02*
Y340000D01*
X592500Y525000D02*
X628000D01*
X631000Y522000D01*
X636000D01*
X646000Y512000D01*
Y498000D02*
Y512000D01*
X565250Y513250D02*
X634750D01*
X643500Y492500D02*
X650000D01*
X641000Y495000D02*
X643500Y492500D01*
X641000Y495000D02*
Y507000D01*
X634750Y513250D02*
X641000Y507000D01*
X642500Y487500D02*
X650000D01*
X637000Y493000D02*
X642500Y487500D01*
X633404Y510000D02*
X637000Y506404D01*
Y493000D02*
Y506404D01*
X571000Y486000D02*
X582000Y475000D01*
X571000Y486000D02*
Y489000D01*
X560000Y500000D02*
X571000Y489000D01*
X467530Y466530D02*
X479000Y478000D01*
X557000D01*
X560000Y475000D01*
X582000Y500000D02*
Y507000D01*
X585000Y510000D01*
X633404D01*
X560000Y508000D02*
X565250Y513250D01*
X560000Y500000D02*
Y508000D01*
X460000Y466530D02*
X467530D01*
X631000Y491904D02*
X640404Y482500D01*
X631000Y491904D02*
Y496000D01*
X340000Y525000D02*
X400000D01*
X720000Y512500D02*
X726500D01*
X729000Y515000D01*
X734000D01*
X534000Y500000D02*
X534500Y500500D01*
X700000Y427500D02*
Y441381D01*
X710999Y460749D02*
X721749D01*
X699073Y442308D02*
X700000Y441381D01*
X699073Y467823D02*
X714250Y483000D01*
X699073Y442308D02*
Y467823D01*
X705573Y445000D02*
X715000Y435573D01*
X705573Y445000D02*
Y462985D01*
X725000Y482412D01*
X702323Y464332D02*
X719750Y481758D01*
X702323Y443654D02*
Y464332D01*
Y443654D02*
X710000Y435977D01*
X740000Y389000D02*
X746000Y395000D01*
X675000Y411078D02*
Y427500D01*
Y411078D02*
X710000Y376078D01*
Y360000D02*
Y376078D01*
X680000Y410674D02*
Y427500D01*
Y410674D02*
X701674Y389000D01*
X740000D01*
X705000Y419000D02*
X709500Y414500D01*
X754500D01*
X702251Y410249D02*
X747751D01*
X695000Y417500D02*
X702251Y410249D01*
X690000Y417904D02*
Y427500D01*
Y417904D02*
X706000Y401904D01*
Y398000D02*
Y401904D01*
X530000Y554000D02*
Y570000D01*
D21*
X450000Y288100D02*
Y317000D01*
X327000Y563000D02*
Y575000D01*
X328000Y359000D02*
Y368000D01*
X595999Y415999D02*
X600000Y420000D01*
X595999Y405999D02*
Y415999D01*
X340400Y575400D02*
X375000D01*
X340000Y575000D02*
X340400Y575400D01*
X329680Y487180D02*
Y498680D01*
X331000Y500000D01*
X374200D02*
X375000Y499200D01*
X340000Y500000D02*
X374200D01*
X438407Y337000D02*
X447000Y328407D01*
X328000Y345000D02*
Y359000D01*
Y345000D02*
X336000Y337000D01*
X360000D01*
X434500Y458500D02*
Y478500D01*
X447000Y320000D02*
Y328407D01*
Y320000D02*
X450000Y317000D01*
X395000Y490000D02*
X405000D01*
X376000Y481000D02*
X386000D01*
X395000Y490000D01*
X510000Y356000D02*
Y372000D01*
X423000Y356000D02*
X437000Y370000D01*
X360000Y337000D02*
X400000D01*
X438407D01*
X600000Y420000D02*
X611250D01*
X622500D01*
X633750D01*
X645000D01*
X615000Y499000D02*
X621000D01*
X534500Y500500D02*
Y510000D01*
X665000Y438000D02*
X668750Y441750D01*
X687750D01*
X694323Y448323D01*
Y477869D01*
X716000Y499546D01*
X605000Y499000D02*
X615000D01*
X375000Y480000D02*
X376000Y481000D01*
X437000Y370000D02*
X440000D01*
D22*
X375000Y481000D02*
D03*
Y593500D02*
D03*
X510000Y356000D02*
D03*
X423000D02*
D03*
X400000Y337000D02*
D03*
X337000Y319000D02*
D03*
X709000Y400000D02*
D03*
X354000Y248600D02*
D03*
X494000D02*
D03*
D23*
X464350Y246600D02*
D03*
X383650D02*
D03*
X466350Y283600D02*
D03*
X381650D02*
D03*
D24*
X375000Y524600D02*
D03*
Y575400D02*
D03*
Y550000D02*
D03*
X790000Y570400D02*
D03*
Y545000D02*
D03*
Y519600D02*
D03*
X815400Y545000D02*
D03*
Y519600D02*
D03*
X375000Y425000D02*
D03*
D25*
Y499200D02*
D03*
X815400Y570400D02*
D03*
D26*
X375000Y399600D02*
D03*
D27*
X790000Y365000D02*
D03*
X765000Y315000D02*
D03*
X340000Y365000D02*
D03*
X315000Y315000D02*
D03*
X490000Y365000D02*
D03*
X465000Y315000D02*
D03*
X640000Y365000D02*
D03*
X615000Y315000D02*
D03*
D28*
X280000Y650000D02*
D03*
X820000D02*
D03*
X280000Y260000D02*
D03*
X820000D02*
D03*
X550000D02*
D03*
D29*
X735000Y625000D02*
D03*
X710000Y285000D02*
D03*
D30*
X322000Y414000D02*
D03*
X714250Y484000D02*
D03*
X711275Y449529D02*
D03*
X719750Y491500D02*
D03*
X716035Y466022D02*
D03*
X724000Y498000D02*
D03*
X714999Y442999D02*
D03*
X722500Y441000D02*
D03*
X729000Y435000D02*
D03*
X715785Y455272D02*
D03*
X755000Y415000D02*
D03*
X748000Y409000D02*
D03*
X729998Y404999D02*
D03*
X667500Y558000D02*
D03*
X687500D02*
D03*
X435000Y487000D02*
D03*
Y479000D02*
D03*
X329680Y487180D02*
D03*
X327000Y563000D02*
D03*
X530000Y558000D02*
D03*
X735500Y429000D02*
D03*
X487250Y430750D02*
D03*
X588000D02*
D03*
X512000D02*
D03*
X631750D02*
D03*
X468250D02*
D03*
X531000D02*
D03*
X569000D02*
D03*
X505000Y408000D02*
D03*
X760000Y590000D02*
D03*
X742000Y423000D02*
D03*
X746000Y395000D02*
D03*
X657500Y426000D02*
D03*
X651532Y430521D02*
D03*
X666750Y414750D02*
D03*
X751250Y484250D02*
D03*
X746750Y499500D02*
D03*
X612750Y430750D02*
D03*
X625000Y487000D02*
D03*
X353000Y327000D02*
D03*
X297000Y352000D02*
D03*
X299000Y318000D02*
D03*
X265000Y413000D02*
D03*
X346000Y375000D02*
D03*
X284988Y384983D02*
D03*
X319000Y385000D02*
D03*
X325000Y431000D02*
D03*
X306951Y384710D02*
D03*
X328000Y368000D02*
D03*
Y359000D02*
D03*
X785000Y332000D02*
D03*
X809000Y379000D02*
D03*
X708000Y315000D02*
D03*
X588000Y379750D02*
D03*
X798000Y335000D02*
D03*
X579500Y379750D02*
D03*
X571000D02*
D03*
X527500Y394750D02*
D03*
X390000Y388000D02*
D03*
X664000Y470000D02*
D03*
X789000Y449000D02*
D03*
X441000Y375000D02*
D03*
Y382000D02*
D03*
X455000Y497500D02*
D03*
Y507500D02*
D03*
X383000Y439000D02*
D03*
X304000Y438000D02*
D03*
X405000Y490000D02*
D03*
X396519Y430500D02*
D03*
X411250Y430750D02*
D03*
X434000Y430000D02*
D03*
X435000Y399000D02*
D03*
X424999Y429999D02*
D03*
X672000Y530000D02*
D03*
X680000D02*
D03*
X687999Y529999D02*
D03*
X604000Y487000D02*
D03*
X595999Y405999D02*
D03*
X403999Y429999D02*
D03*
X545000Y326000D02*
D03*
X455000Y487500D02*
D03*
X487500Y375000D02*
D03*
Y382500D02*
D03*
X472500Y375000D02*
D03*
X771999Y583999D02*
D03*
X766000Y571000D02*
D03*
X353000Y362000D02*
D03*
X455000Y477500D02*
D03*
X454999Y469999D02*
D03*
X443000Y430000D02*
D03*
X256000Y413000D02*
D03*
X425000Y375000D02*
D03*
X522000Y430000D02*
D03*
X588000Y406000D02*
D03*
X717000Y528000D02*
D03*
X751000Y547000D02*
D03*
X551000Y627000D02*
D03*
X799000Y485000D02*
D03*
X764000Y429000D02*
D03*
X600000Y384000D02*
D03*
X620000D02*
D03*
X667000D02*
D03*
X340000Y538000D02*
D03*
X461000Y542000D02*
D03*
X520000Y543000D02*
D03*
X657000Y512000D02*
D03*
X697000Y526000D02*
D03*
X656000Y558000D02*
D03*
X747000Y590000D02*
D03*
X740500Y584750D02*
D03*
X734000Y579500D02*
D03*
X411250Y628250D02*
D03*
X512000D02*
D03*
X612750D02*
D03*
X430250D02*
D03*
X531000D02*
D03*
X631750D02*
D03*
X468250Y626250D02*
D03*
X569000Y627000D02*
D03*
X669500Y623750D02*
D03*
X487250Y621250D02*
D03*
X588000D02*
D03*
X688750Y618250D02*
D03*
X727500Y574250D02*
D03*
X755000Y578000D02*
D03*
X480000Y375000D02*
D03*
X449000D02*
D03*
X457000D02*
D03*
X260000Y320000D02*
D03*
X270000Y500000D02*
D03*
X260000Y600000D02*
D03*
X310000Y300000D02*
D03*
Y660000D02*
D03*
X320000Y240000D02*
D03*
X330000Y260000D02*
D03*
X320000Y280000D02*
D03*
X330000Y300000D02*
D03*
X320000Y360000D02*
D03*
X330000Y660000D02*
D03*
X340000Y240000D02*
D03*
Y280000D02*
D03*
X350000Y300000D02*
D03*
Y660000D02*
D03*
X360000Y280000D02*
D03*
X370000Y300000D02*
D03*
X360000Y480000D02*
D03*
Y560000D02*
D03*
Y600000D02*
D03*
X370000Y660000D02*
D03*
X390000Y300000D02*
D03*
X380000Y320000D02*
D03*
X390000Y540000D02*
D03*
Y660000D02*
D03*
X410000Y300000D02*
D03*
X400000Y320000D02*
D03*
X410000Y660000D02*
D03*
X420000Y280000D02*
D03*
Y400000D02*
D03*
X430000Y660000D02*
D03*
X450000Y620000D02*
D03*
Y660000D02*
D03*
X470000Y300000D02*
D03*
X460000Y560000D02*
D03*
X470000Y660000D02*
D03*
X480000Y240000D02*
D03*
Y280000D02*
D03*
Y320000D02*
D03*
X490000Y660000D02*
D03*
X510000Y260000D02*
D03*
X500000Y280000D02*
D03*
Y320000D02*
D03*
X510000Y660000D02*
D03*
X520000Y240000D02*
D03*
Y280000D02*
D03*
X530000Y300000D02*
D03*
Y380000D02*
D03*
X520000Y520000D02*
D03*
Y560000D02*
D03*
X530000Y660000D02*
D03*
X550000Y300000D02*
D03*
X540000Y360000D02*
D03*
X550000Y380000D02*
D03*
X540000Y520000D02*
D03*
Y560000D02*
D03*
X550000Y660000D02*
D03*
X560000Y320000D02*
D03*
Y360000D02*
D03*
X570000Y660000D02*
D03*
X580000Y240000D02*
D03*
X590000Y260000D02*
D03*
X580000Y280000D02*
D03*
Y520000D02*
D03*
X590000Y660000D02*
D03*
X600000Y240000D02*
D03*
X610000Y260000D02*
D03*
X600000Y280000D02*
D03*
X610000Y300000D02*
D03*
X600000Y320000D02*
D03*
Y360000D02*
D03*
X610000Y660000D02*
D03*
X620000Y240000D02*
D03*
X630000Y260000D02*
D03*
X620000Y280000D02*
D03*
X630000Y300000D02*
D03*
X620000Y360000D02*
D03*
X630000Y660000D02*
D03*
X640000Y240000D02*
D03*
X650000Y260000D02*
D03*
X640000Y280000D02*
D03*
X650000Y300000D02*
D03*
X640000Y320000D02*
D03*
X650000Y620000D02*
D03*
Y660000D02*
D03*
X660000Y240000D02*
D03*
X670000Y260000D02*
D03*
X660000Y280000D02*
D03*
X670000Y300000D02*
D03*
Y500000D02*
D03*
Y660000D02*
D03*
X680000Y240000D02*
D03*
X690000Y260000D02*
D03*
X680000Y320000D02*
D03*
Y360000D02*
D03*
X690000Y660000D02*
D03*
X700000Y240000D02*
D03*
X710000Y260000D02*
D03*
Y660000D02*
D03*
X720000Y240000D02*
D03*
X730000Y260000D02*
D03*
X720000Y320000D02*
D03*
X730000Y380000D02*
D03*
Y660000D02*
D03*
X740000Y240000D02*
D03*
X750000Y260000D02*
D03*
Y300000D02*
D03*
Y380000D02*
D03*
Y660000D02*
D03*
X760000Y240000D02*
D03*
X770000Y260000D02*
D03*
X760000Y280000D02*
D03*
X770000Y300000D02*
D03*
Y620000D02*
D03*
Y660000D02*
D03*
X780000Y240000D02*
D03*
Y280000D02*
D03*
X790000Y300000D02*
D03*
X780000Y360000D02*
D03*
X790000Y380000D02*
D03*
Y660000D02*
D03*
X810000Y300000D02*
D03*
X800000Y360000D02*
D03*
Y600000D02*
D03*
X810000Y620000D02*
D03*
X830000Y300000D02*
D03*
Y340000D02*
D03*
X820000Y400000D02*
D03*
X830000Y460000D02*
D03*
Y500000D02*
D03*
Y540000D02*
D03*
Y580000D02*
D03*
X820000Y600000D02*
D03*
X830000Y620000D02*
D03*
X331000Y405000D02*
D03*
X340000D02*
D03*
X349000D02*
D03*
X413000Y565000D02*
D03*
X395000Y490000D02*
D03*
X388000Y412000D02*
D03*
X495000Y353000D02*
D03*
X450000Y346000D02*
D03*
X396000Y374000D02*
D03*
X300000Y360000D02*
D03*
X311000Y330000D02*
D03*
X270000Y340000D02*
D03*
X495000Y408000D02*
D03*
X485000Y413000D02*
D03*
X606000Y406000D02*
D03*
X611250Y420000D02*
D03*
X633750D02*
D03*
X285000Y574000D02*
D03*
X286000Y494000D02*
D03*
X260000Y520000D02*
D03*
Y560000D02*
D03*
X330000Y600000D02*
D03*
X318000Y520000D02*
D03*
X391000Y511000D02*
D03*
X473000Y512000D02*
D03*
X500000Y520000D02*
D03*
X615000Y499000D02*
D03*
X581000Y487000D02*
D03*
X520000Y485000D02*
D03*
X540000D02*
D03*
X480000D02*
D03*
X534500Y510000D02*
D03*
X710999Y460749D02*
D03*
X702000Y496000D02*
D03*
X690000Y484000D02*
D03*
X723000Y400000D02*
D03*
D38*
X398000Y288100D02*
D03*
X450000D02*
D03*
D39*
X404000D02*
D03*
X439000D02*
D03*
X444000D02*
D03*
D40*
X408000Y252000D02*
D03*
X440000D02*
D03*
D41*
X495000Y337500D02*
D03*
X585000D02*
D03*
X495000Y293500D02*
D03*
X585000D02*
D03*
D42*
X444000Y480000D02*
D03*
X425000D02*
D03*
Y458500D02*
D03*
X434500D02*
D03*
D43*
X444000Y458500D02*
D03*
D44*
X435000Y304500D02*
D03*
X449000D02*
D03*
D45*
X809000Y345000D02*
D03*
X785000D02*
D03*
X453000Y355000D02*
D03*
X477000D02*
D03*
D46*
X340000Y575000D02*
D03*
Y550000D02*
D03*
Y525000D02*
D03*
Y500000D02*
D03*
D47*
X296000Y468000D02*
D03*
Y607000D02*
D03*
D48*
X540000Y545000D02*
D03*
Y538500D02*
D03*
Y532000D02*
D03*
Y551500D02*
D03*
X496000D02*
D03*
Y545000D02*
D03*
Y538500D02*
D03*
D49*
Y532000D02*
D03*
D50*
X277000Y369500D02*
D03*
Y433000D02*
D03*
D51*
X306000Y395000D02*
D03*
Y407500D02*
D03*
D52*
X665000Y427500D02*
D03*
X670000D02*
D03*
X675000D02*
D03*
X680000D02*
D03*
X685000D02*
D03*
X690000D02*
D03*
X695000D02*
D03*
X700000D02*
D03*
X705000D02*
D03*
X710000D02*
D03*
X715000D02*
D03*
X720000D02*
D03*
X720000Y512500D02*
D03*
X715000D02*
D03*
X710000D02*
D03*
X705000D02*
D03*
X700000D02*
D03*
X695000D02*
D03*
X690000D02*
D03*
X685000D02*
D03*
X680000Y512500D02*
D03*
X675000D02*
D03*
X670000D02*
D03*
X665000D02*
D03*
D53*
X735000Y442500D02*
D03*
Y447500D02*
D03*
Y452500D02*
D03*
Y457500D02*
D03*
X735000Y462500D02*
D03*
Y467500D02*
D03*
Y472500D02*
D03*
Y477500D02*
D03*
Y482500D02*
D03*
Y487500D02*
D03*
Y492500D02*
D03*
Y497500D02*
D03*
X650000Y497500D02*
D03*
Y492500D02*
D03*
Y487500D02*
D03*
Y482500D02*
D03*
Y477500D02*
D03*
Y472500D02*
D03*
Y467500D02*
D03*
Y462500D02*
D03*
Y452500D02*
D03*
Y442500D02*
D03*
Y447500D02*
D03*
Y457500D02*
D03*
D54*
X498500Y497500D02*
D03*
X534500D02*
D03*
D55*
X765000Y445000D02*
D03*
X826000D02*
D03*
Y384000D02*
D03*
X765000D02*
D03*
D56*
X475000Y383500D02*
D03*
Y402500D02*
D03*
X453500D02*
D03*
Y393000D02*
D03*
D57*
X453500Y383500D02*
D03*
D58*
X405000Y479000D02*
D03*
Y455000D02*
D03*
X465000D02*
D03*
Y479000D02*
D03*
D59*
X476400Y283600D02*
X480000Y280000D01*
X466350Y283600D02*
X476400D01*
X478850Y246600D02*
X479000Y246750D01*
X464350Y246600D02*
X478850D01*
X495000Y282500D02*
Y293500D01*
X585000Y280000D02*
Y293500D01*
X710000Y265000D02*
Y285000D01*
X600000Y384000D02*
Y395000D01*
X622500Y386500D02*
Y395000D01*
X620000Y384000D02*
X622500Y386500D01*
X444000Y458500D02*
X451000D01*
X628500Y477500D02*
X650000D01*
X626000Y475000D02*
X628500Y477500D01*
X296000Y468000D02*
Y486000D01*
X296000Y486000D02*
X296000Y486000D01*
D60*
X665000Y427500D02*
Y438000D01*
X665000Y438000D02*
X665000Y438000D01*
X720000Y503546D02*
Y512500D01*
X716000Y499546D02*
X720000Y503546D01*
D61*
X425000Y387500D02*
X434000D01*
M02*
